TOP-SoC/sandbox/SoC-32bit/src/picorv32_simulation.vcd
$date
	Sun Jun 22 19:14:59 2025
$end
$version
	Icarus Verilog
$end
$timescale
	1ps
$end
$scope module top_tb $end
$var wire 1 ! trap $end
$var wire 4 " mem_wstrb [3:0] $end
$var wire 32 # mem_wdata [31:0] $end
$var wire 1 $ mem_valid $end
$var wire 1 % mem_ready $end
$var wire 32 & mem_rdata [31:0] $end
$var wire 1 ' mem_instr $end
$var wire 32 ( mem_addr [31:0] $end
$var reg 1 ) clk $end
$var reg 1 * completed_addi_x1 $end
$var reg 1 + completed_addi_x2 $end
$var reg 1 , completed_lw $end
$var reg 1 - completed_sw_init $end
$var reg 1 . completed_sw_update $end
$var reg 32 / last_pc [31:0] $end
$var reg 1 0 load_completed $end
$var reg 32 1 loop_count [31:0] $end
$var reg 32 2 mem_rdata_reg [31:0] $end
$var reg 1 % mem_ready_reg $end
$var reg 32 3 prev_pc [31:0] $end
$var reg 1 4 program_started $end
$var reg 1 5 reached_loop $end
$var reg 8 6 reset_counter [7:0] $end
$var reg 1 7 resetn $end
$var reg 1 8 store_completed $end
$var integer 32 9 expected_x1_value [31:0] $end
$var integer 32 : log_file [31:0] $end
$var integer 32 ; reg_monitor_count [31:0] $end
$scope module cpu $end
$var wire 1 ) clk $end
$var wire 32 < dbg_mem_addr [31:0] $end
$var wire 1 = dbg_mem_instr $end
$var wire 32 > dbg_mem_rdata [31:0] $end
$var wire 1 ? dbg_mem_ready $end
$var wire 1 @ dbg_mem_valid $end
$var wire 32 A dbg_mem_wdata [31:0] $end
$var wire 4 B dbg_mem_wstrb [3:0] $end
$var wire 1 C instr_trap $end
$var wire 32 D irq [31:0] $end
$var wire 1 E launch_next_insn $end
$var wire 1 F mem_done $end
$var wire 1 G mem_la_firstword $end
$var wire 1 H mem_la_firstword_xfer $end
$var wire 1 I mem_la_read $end
$var wire 1 J mem_la_use_prefetched_high_word $end
$var wire 1 K mem_la_write $end
$var wire 32 L mem_rdata [31:0] $end
$var wire 32 M mem_rdata_latched [31:0] $end
$var wire 1 % mem_ready $end
$var wire 1 N mem_xfer $end
$var wire 32 O pcpi_rd [31:0] $end
$var wire 1 P pcpi_ready $end
$var wire 32 Q pcpi_rs1 [31:0] $end
$var wire 32 R pcpi_rs2 [31:0] $end
$var wire 1 S pcpi_wait $end
$var wire 1 T pcpi_wr $end
$var wire 1 U prevent_instruction_fetch $end
$var wire 1 7 resetn $end
$var wire 32 V next_pc [31:0] $end
$var wire 32 W mem_rdata_latched_noshuffle [31:0] $end
$var wire 32 X mem_la_addr [31:0] $end
$var wire 1 Y mem_busy $end
$var wire 1 Z is_rdcycle_rdcycleh_rdinstr_rdinstrh $end
$var parameter 1 [ BARREL_SHIFTER $end
$var parameter 1 \ CATCH_ILLINSN $end
$var parameter 1 ] CATCH_MISALIGN $end
$var parameter 1 ^ COMPRESSED_ISA $end
$var parameter 1 _ ENABLE_COUNTERS $end
$var parameter 1 ` ENABLE_COUNTERS64 $end
$var parameter 1 a ENABLE_DIV $end
$var parameter 1 b ENABLE_FAST_MUL $end
$var parameter 1 c ENABLE_IRQ $end
$var parameter 1 d ENABLE_IRQ_QREGS $end
$var parameter 1 e ENABLE_IRQ_TIMER $end
$var parameter 1 f ENABLE_MUL $end
$var parameter 1 g ENABLE_PCPI $end
$var parameter 1 h ENABLE_REGS_16_31 $end
$var parameter 1 i ENABLE_REGS_DUALPORT $end
$var parameter 1 j ENABLE_TRACE $end
$var parameter 32 k LATCHED_IRQ $end
$var parameter 1 l LATCHED_MEM_RDATA $end
$var parameter 32 m MASKED_IRQ $end
$var parameter 32 n PROGADDR_IRQ $end
$var parameter 32 o PROGADDR_RESET $end
$var parameter 1 p REGS_INIT_ZERO $end
$var parameter 32 q STACKADDR $end
$var parameter 36 r TRACE_ADDR $end
$var parameter 36 s TRACE_BRANCH $end
$var parameter 36 t TRACE_IRQ $end
$var parameter 1 u TWO_CYCLE_ALU $end
$var parameter 1 v TWO_CYCLE_COMPARE $end
$var parameter 1 w TWO_STAGE_SHIFT $end
$var parameter 1 x WITH_PCPI $end
$var parameter 8 y cpu_state_exec $end
$var parameter 8 z cpu_state_fetch $end
$var parameter 8 { cpu_state_ld_rs1 $end
$var parameter 8 | cpu_state_ld_rs2 $end
$var parameter 8 } cpu_state_ldmem $end
$var parameter 8 ~ cpu_state_shift $end
$var parameter 8 !" cpu_state_stmem $end
$var parameter 8 "" cpu_state_trap $end
$var parameter 32 #" irq_buserror $end
$var parameter 32 $" irq_ebreak $end
$var parameter 32 %" irq_timer $end
$var parameter 32 &" irqregs_offset $end
$var parameter 32 '" regfile_size $end
$var parameter 32 (" regindex_bits $end
$var reg 32 )" alu_add_sub [31:0] $end
$var reg 1 *" alu_eq $end
$var reg 1 +" alu_lts $end
$var reg 1 ," alu_ltu $end
$var reg 32 -" alu_out [31:0] $end
$var reg 1 ." alu_out_0 $end
$var reg 1 /" alu_out_0_q $end
$var reg 32 0" alu_out_q [31:0] $end
$var reg 32 1" alu_shl [31:0] $end
$var reg 32 2" alu_shr [31:0] $end
$var reg 1 3" alu_wait $end
$var reg 1 4" alu_wait_2 $end
$var reg 64 5" cached_ascii_instr [63:0] $end
$var reg 32 6" cached_insn_imm [31:0] $end
$var reg 32 7" cached_insn_opcode [31:0] $end
$var reg 5 8" cached_insn_rd [4:0] $end
$var reg 5 9" cached_insn_rs1 [4:0] $end
$var reg 5 :" cached_insn_rs2 [4:0] $end
$var reg 1 ;" clear_prefetched_high_word $end
$var reg 1 <" clear_prefetched_high_word_q $end
$var reg 1 =" compressed_instr $end
$var reg 64 >" count_cycle [63:0] $end
$var reg 64 ?" count_instr [63:0] $end
$var reg 8 @" cpu_state [7:0] $end
$var reg 32 A" cpuregs_rs1 [31:0] $end
$var reg 32 B" cpuregs_rs2 [31:0] $end
$var reg 32 C" cpuregs_wrdata [31:0] $end
$var reg 1 D" cpuregs_write $end
$var reg 32 E" current_pc [31:0] $end
$var reg 32 F" data_gonna_execute [31:0] $end
$var reg 2 G" data_mem_delay_counter [1:0] $end
$var reg 1 H" data_mem_operation_active $end
$var reg 64 I" dbg_ascii_instr [63:0] $end
$var reg 128 J" dbg_ascii_state [127:0] $end
$var reg 32 K" dbg_insn_addr [31:0] $end
$var reg 32 L" dbg_insn_imm [31:0] $end
$var reg 32 M" dbg_insn_opcode [31:0] $end
$var reg 5 N" dbg_insn_rd [4:0] $end
$var reg 5 O" dbg_insn_rs1 [4:0] $end
$var reg 5 P" dbg_insn_rs2 [4:0] $end
$var reg 1 Q" dbg_next $end
$var reg 32 R" dbg_rs1val [31:0] $end
$var reg 1 S" dbg_rs1val_valid $end
$var reg 32 T" dbg_rs2val [31:0] $end
$var reg 1 U" dbg_rs2val_valid $end
$var reg 1 V" dbg_valid_insn $end
$var reg 32 W" decoded_imm [31:0] $end
$var reg 32 X" decoded_imm_j [31:0] $end
$var reg 5 Y" decoded_rd [4:0] $end
$var reg 5 Z" decoded_rs [4:0] $end
$var reg 5 [" decoded_rs1 [4:0] $end
$var reg 5 \" decoded_rs2 [4:0] $end
$var reg 1 ]" decoder_pseudo_trigger $end
$var reg 1 ^" decoder_pseudo_trigger_q $end
$var reg 1 _" decoder_trigger $end
$var reg 1 `" decoder_trigger_q $end
$var reg 1 a" do_waitirq $end
$var reg 32 b" eoi [31:0] $end
$var reg 1 c" instr_add $end
$var reg 1 d" instr_addi $end
$var reg 1 e" instr_and $end
$var reg 1 f" instr_andi $end
$var reg 1 g" instr_auipc $end
$var reg 1 h" instr_beq $end
$var reg 1 i" instr_bge $end
$var reg 1 j" instr_bgeu $end
$var reg 1 k" instr_blt $end
$var reg 1 l" instr_bltu $end
$var reg 1 m" instr_bne $end
$var reg 1 n" instr_ecall_ebreak $end
$var reg 1 o" instr_fence $end
$var reg 1 p" instr_getq $end
$var reg 1 q" instr_jal $end
$var reg 1 r" instr_jalr $end
$var reg 1 s" instr_lb $end
$var reg 1 t" instr_lbu $end
$var reg 1 u" instr_lh $end
$var reg 1 v" instr_lhu $end
$var reg 1 w" instr_lui $end
$var reg 1 x" instr_lw $end
$var reg 1 y" instr_maskirq $end
$var reg 1 z" instr_or $end
$var reg 1 {" instr_ori $end
$var reg 1 |" instr_rdcycle $end
$var reg 1 }" instr_rdcycleh $end
$var reg 1 ~" instr_rdinstr $end
$var reg 1 !# instr_rdinstrh $end
$var reg 1 "# instr_retirq $end
$var reg 1 ## instr_sb $end
$var reg 1 $# instr_setq $end
$var reg 1 %# instr_sh $end
$var reg 1 &# instr_sll $end
$var reg 1 '# instr_slli $end
$var reg 1 (# instr_slt $end
$var reg 1 )# instr_slti $end
$var reg 1 *# instr_sltiu $end
$var reg 1 +# instr_sltu $end
$var reg 1 ,# instr_sra $end
$var reg 1 -# instr_srai $end
$var reg 1 .# instr_srl $end
$var reg 1 /# instr_srli $end
$var reg 1 0# instr_sub $end
$var reg 1 1# instr_sw $end
$var reg 1 2# instr_timer $end
$var reg 1 3# instr_waitirq $end
$var reg 1 4# instr_xor $end
$var reg 1 5# instr_xori $end
$var reg 1 6# irq_active $end
$var reg 1 7# irq_delay $end
$var reg 32 8# irq_mask [31:0] $end
$var reg 32 9# irq_pending [31:0] $end
$var reg 2 :# irq_state [1:0] $end
$var reg 1 ;# is_alu_reg_imm $end
$var reg 1 <# is_alu_reg_reg $end
$var reg 1 =# is_beq_bne_blt_bge_bltu_bgeu $end
$var reg 1 ># is_compare $end
$var reg 1 ?# is_jalr $end
$var reg 1 @# is_jalr_addi_slti_sltiu_xori_ori_andi $end
$var reg 1 A# is_lb_lh_lw_lbu_lhu $end
$var reg 1 B# is_lbu_lhu_lw $end
$var reg 1 C# is_lui_auipc_jal $end
$var reg 1 D# is_lui_auipc_jal_jalr_addi_add_sub $end
$var reg 1 E# is_sb_sh_sw $end
$var reg 1 F# is_sll_srl_sra $end
$var reg 1 G# is_slli_srli_srai $end
$var reg 1 H# is_slti_blt_slt $end
$var reg 1 I# is_sltiu_bltu_sltu $end
$var reg 1 J# last_mem_valid $end
$var reg 1 K# latched_branch $end
$var reg 1 L# latched_compr $end
$var reg 1 M# latched_is_lb $end
$var reg 1 N# latched_is_lh $end
$var reg 1 O# latched_is_lu $end
$var reg 5 P# latched_rd [4:0] $end
$var reg 1 Q# latched_stalu $end
$var reg 1 R# latched_store $end
$var reg 1 S# latched_trace $end
$var reg 32 T# mem_addr [31:0] $end
$var reg 1 U# mem_do_prefetch $end
$var reg 1 V# mem_do_rdata $end
$var reg 1 W# mem_do_rinst $end
$var reg 1 X# mem_do_wdata $end
$var reg 1 ' mem_instr $end
$var reg 1 Y# mem_la_firstword_reg $end
$var reg 1 Z# mem_la_secondword $end
$var reg 32 [# mem_la_wdata [31:0] $end
$var reg 4 \# mem_la_wstrb [3:0] $end
$var reg 32 ]# mem_rdata_q [31:0] $end
$var reg 32 ^# mem_rdata_word [31:0] $end
$var reg 2 _# mem_state [1:0] $end
$var reg 1 $ mem_valid $end
$var reg 32 `# mem_wdata [31:0] $end
$var reg 2 a# mem_wordsize [1:0] $end
$var reg 4 b# mem_wstrb [3:0] $end
$var reg 64 c# new_ascii_instr [63:0] $end
$var reg 32 d# next_insn_opcode [31:0] $end
$var reg 32 e# next_irq_pending [31:0] $end
$var reg 32 f# pcpi_insn [31:0] $end
$var reg 32 g# pcpi_int_rd [31:0] $end
$var reg 1 h# pcpi_int_ready $end
$var reg 1 i# pcpi_int_wait $end
$var reg 1 j# pcpi_int_wr $end
$var reg 1 k# pcpi_timeout $end
$var reg 1 l# pcpi_valid $end
$var reg 1 m# prefetched_high_word $end
$var reg 64 n# q_ascii_instr [63:0] $end
$var reg 32 o# q_insn_imm [31:0] $end
$var reg 32 p# q_insn_opcode [31:0] $end
$var reg 5 q# q_insn_rd [4:0] $end
$var reg 5 r# q_insn_rs1 [4:0] $end
$var reg 5 s# q_insn_rs2 [4:0] $end
$var reg 32 t# reg_next_pc [31:0] $end
$var reg 32 u# reg_op1 [31:0] $end
$var reg 32 v# reg_op2 [31:0] $end
$var reg 32 w# reg_out [31:0] $end
$var reg 32 x# reg_pc [31:0] $end
$var reg 5 y# reg_sh [4:0] $end
$var reg 1 z# set_mem_do_rdata $end
$var reg 1 {# set_mem_do_rinst $end
$var reg 1 |# set_mem_do_wdata $end
$var reg 32 }# timer [31:0] $end
$var reg 36 ~# trace_data [35:0] $end
$var reg 1 !$ trace_valid $end
$var reg 1 ! trap $end
$scope begin genblk1 $end
$upscope $end
$scope task empty_statement $end
$upscope $end
$upscope $end
$upscope $end
$enddefinitions $end
$comment Show the parameter values. $end
$dumpall
b101 ("
b100000 '"
b100000 &"
b0 %"
b1 $"
b10 #"
b10000000 ""
b10 !"
b100 ~
b1 }
b10000 |
b100000 {
b1000000 z
b1000 y
0x
1w
0v
0u
b100000000000000000000000000000000000 t
b100000000000000000000000000000000 s
b1000000000000000000000000000000000 r
b11111111111111111111111111111111 q
0p
b0 o
b10000 n
b0 m
0l
b11111111111111111111111111111111 k
0j
1i
1h
0g
0f
1e
1d
0c
0b
0a
1`
1_
0^
1]
1\
0[
$end
#0
$dumpvars
x!$
bx ~#
bx }#
x|#
x{#
xz#
bx y#
bx x#
bx w#
bx v#
bx u#
bx t#
bx s#
bx r#
bx q#
bx p#
bx o#
bx n#
xm#
xl#
xk#
0j#
0i#
0h#
bx g#
bx f#
bx e#
bx d#
bx c#
bx b#
bx a#
bx `#
bx _#
bx ^#
bx ]#
bx \#
bx [#
xZ#
xY#
xX#
xW#
xV#
xU#
bx T#
xS#
xR#
xQ#
bx P#
xO#
xN#
xM#
xL#
xK#
xJ#
xI#
xH#
xG#
xF#
xE#
xD#
xC#
xB#
xA#
x@#
x?#
x>#
x=#
x<#
x;#
bx :#
bx 9#
bx 8#
x7#
x6#
x5#
x4#
x3#
x2#
x1#
x0#
x/#
x.#
x-#
x,#
x+#
x*#
x)#
x(#
x'#
x&#
x%#
x$#
x##
x"#
x!#
x~"
x}"
x|"
x{"
xz"
xy"
xx"
xw"
xv"
xu"
xt"
xs"
xr"
xq"
xp"
xo"
xn"
xm"
xl"
xk"
xj"
xi"
xh"
xg"
xf"
xe"
xd"
xc"
bx b"
xa"
x`"
x_"
x^"
x]"
bx \"
bx ["
bx Z"
bx Y"
bx X"
bx W"
xV"
xU"
bx T"
xS"
bx R"
xQ"
bx P"
bx O"
bx N"
bx M"
bx L"
bx K"
bx J"
bx I"
xH"
bx G"
bx F"
bx E"
xD"
bx C"
bx B"
bx A"
bx @"
bx ?"
bx >"
x="
x<"
0;"
bx :"
bx 9"
bx 8"
bx 7"
bx 6"
bx 5"
x4"
x3"
bx 2"
bx 1"
bx 0"
x/"
x."
bx -"
x,"
x+"
x*"
bx )"
xZ
xY
bx00 X
bx W
bx V
xU
zT
zS
bx R
bx Q
zP
bz O
xN
bx M
bx L
0K
0J
0I
0H
0G
0F
xE
bz D
xC
bx B
bx A
x@
x?
bx >
x=
bx <
b0 ;
b10000000000000000000000000000011 :
b1111111100 9
08
07
b0 6
05
04
b0 3
bx 2
b0 1
00
b0 /
0.
0-
0,
0+
0*
0)
bx (
x'
bx &
x%
x$
bx #
bx "
x!
$end
#5000
0E
0N
b0 c#
0U
0Y
b110011001100101011101000110001101101000 J"
b0 V
0D"
0J#
0Y#
0m#
0Z#
0@
0$
b0 _#
0V"
0o"
0e"
0z"
0,#
0.#
04#
0+#
0(#
0&#
00#
0c"
0f"
0{"
05#
0*#
0)#
0d"
0j"
0l"
0i"
0k"
0m"
0h"
0>#
0=#
0<"
b0 9#
0X#
0V#
0W#
0U#
b1000000 @"
0H"
b0 G"
b0 }#
b0 b"
b0 :#
b11111111111111111111111111111111 8#
07#
06#
0k#
0l#
0M#
0N#
0O#
0S#
0K#
0Q#
0R#
b0 ?"
b0 t#
b0 x#
0!$
0a"
0]"
0_"
b0 >"
04"
03"
0!
b0 >
b0 &
b0 2
b0 L
0?
0%
b0 e#
0|#
0z#
0{#
1)
#10000
0)
#15000
0^"
0`"
0I#
0H#
0Q"
b0 e#
1)
#20000
0)
#25000
b0 e#
1)
#30000
0)
#35000
b0 e#
1)
#40000
0)
#45000
b0 e#
1)
#50000
0)
#55000
b0 e#
1)
#60000
0)
#65000
b0 e#
1)
#70000
0)
#75000
b0 e#
1)
#80000
0)
#85000
b0 e#
1)
#90000
0)
#95000
b0 e#
1)
#100000
0)
17
#105000
1I
b0 X
b0 ^#
b1111 \#
1Y
bx 9#
b0 a#
1W#
b1 >"
b1 6
b1 ;
bx E"
bx e#
1)
#110000
0)
#115000
0I
b10 ;
b10 6
b10 >"
b1 _#
1=
1'
1@
1$
b0 B
b0 "
b0 b#
b0 <
b0 (
b0 T#
bx E"
1)
#120000
0)
#125000
1F
b111111110000000000000010010011 M
b111111110000000000000010010011 W
1N
b111111110000000000000010010011 ^#
1J#
b11 >"
1?
1%
b111111110000000000000010010011 >
b111111110000000000000010010011 &
b111111110000000000000010010011 2
b111111110000000000000010010011 L
b11 6
b11 ;
bx E"
1)
#130000
0)
#135000
0F
0N
bx00 X
1E
0Y
b0 A"
b0 _#
0@
0$
b100 ;
b100 6
b111111110000000000000010010011 >
b111111110000000000000010010011 &
b111111110000000000000010010011 2
b111111110000000000000010010011 L
1?
1%
0W#
1_"
b100 >"
0="
b11100 \"
b0 ["
b1 Y"
b1111111100 X"
0<#
1;#
0E#
0A#
03#
0"#
0r"
0q"
0g"
0w"
b111111110000000000000010010011 F"
b111111110000000000000010010011 d#
b111111110000000000000010010011 ]#
0J#
bx E"
1)
#140000
0)
#145000
1I
0C
b100 X
0E
b1 N"
b11100 P"
b0 O"
b1111111100 L"
b111111110000000000000010010011 M"
b1100001011001000110010001101001 I"
0Z
b1100001011001000110010001101001 c#
b11011000110010001011111011100100111001100110001 J"
1Y
b100 V
b0 ^#
b0 K"
1V"
1Q"
b1111111100 W"
0F#
1@#
0G#
02#
0y"
0$#
0p"
0n"
0!#
0~"
0}"
0|"
0-#
0/#
0'#
1d"
01#
0%#
0##
0v"
0t"
0x"
0u"
0s"
0?#
0D#
0C#
b100000 @"
1U#
b1 ?"
b100 t#
0L#
b1 P#
1`"
0_"
b101 >"
0U"
0S"
b0 >
b0 &
b0 2
b0 L
0?
0%
b101 6
b101 ;
bx E"
1)
#150000
0)
#155000
0I
b1111111100 -"
b1100101011110000110010101100011 J"
b1111111100 [#
b0 2"
b0 1"
1,"
1+"
0*"
b1111111100 )"
b1 _#
1@
1$
b100 <
b100 (
b100 T#
b110 ;
b110 6
b1000 @"
1W#
b1111111100 R
b1111111100 v#
1S"
b0 R"
b0 Q
b0 u#
0`"
b110 >"
0B#
1D#
b1 8"
b11100 :"
b0 9"
b111111110000000000000010010011 7"
b1111111100 6"
b1100001011001000110010001101001 5"
0Q"
b1 q#
b11100 s#
b0 r#
b111111110000000000000010010011 p#
b1111111100 o#
b1100001011001000110010001101001 n#
1)
#160000
0)
#165000
1F
b1010000000100011 M
b1010000000100011 W
1N
b110011001100101011101000110001101101000 J"
1D"
b1111111100 C"
b1010000000100011 ^#
1J#
b1000000 @"
1Q#
1R#
b1111111100 w#
b111 >"
b1111111100 0"
1?
1%
b1010000000100011 >
b1010000000100011 &
b1010000000100011 2
b1010000000100011 L
b111 6
b111 ;
1)
#170000
0)
#175000
0F
0N
b0 X
1E
0Y
bx C"
0D"
b0 B"
b1111111100 A"
b0 _#
0@
0$
b1000 ;
b1000 6
b1010000000100011 >
b1010000000100011 &
b1010000000100011 2
b1010000000100011 L
1?
1%
0W#
0U#
0Q#
0R#
b100 x#
1_"
b1000 >"
bx w#
b0 \"
b1 ["
b0 Y"
b1010000000000000 X"
0;#
1E#
b1010000000100011 F"
b1010000000100011 d#
b1010000000100011 ]#
0J#
bx E"
1)
#180000
0)
#185000
1I
b1000 X
0E
b0 N"
b0 P"
b1 O"
b0 L"
b1010000000100011 M"
b111001101110111 I"
bx -"
b111001101110111 c#
b11011000110010001011111011100100111001100110001 J"
1Y
b1000 V
b0 ^#
b100 K"
1Q"
b0 W"
0D#
0@#
0d"
11#
b100000 @"
1U#
b10 ?"
b1000 t#
b0 P#
1`"
0_"
b1001 >"
0S"
bx R"
b0 >
b0 &
b0 2
b0 L
0?
0%
b100 3
14
b1001 6
b1001 ;
bx E"
1*
1)
#190000
0)
#195000
0I
b111001101110100011011010110010101101101 J"
b0 [#
b1111111100 2"
b1111111100 1"
0,"
0+"
b1 _#
1@
1$
b1000 <
b1000 (
b1000 T#
b1010 ;
b1010 6
1W#
b10 @"
1U"
b0 T"
b0 y#
1S"
b1111111100 R"
b0 R
b0 v#
b1111111100 Q
b1111111100 u#
0`"
b1010 >"
bx 0"
b0 8"
b0 :"
b1 9"
b1010000000100011 7"
b0 6"
b111001101110111 5"
0Q"
b0 q#
b0 s#
b1 r#
b1010000000100011 p#
b0 o#
b111001101110111 n#
1)
#200000
0)
#205000
1F
b1010000100000011 M
b1010000100000011 W
1N
b1010000100000011 ^#
1J#
b1011 >"
bx y#
1?
1%
b1010000100000011 >
b1010000100000011 &
b1010000100000011 2
b1010000100000011 L
b1011 6
b1011 ;
1)
#210000
0)
#215000
0F
1K
0N
b1111111100 X
1U
b0 _#
0@
0$
b1100 ;
b1100 6
b1010000100000011 >
b1010000100000011 &
b1010000100000011 2
b1010000100000011 L
1?
1%
1X#
0W#
0U#
1_"
b1100 >"
b10 Y"
0E#
1A#
b1010000100000011 F"
b1010000100000011 d#
b1010000100000011 ]#
0J#
1|#
1)
#220000
0)
#225000
0K
b110110001110111 c#
b0 ^#
01#
1x"
1`"
0_"
b1101 >"
b11 G"
1H"
b0 >
b0 &
b0 2
b0 L
0?
0%
b1101 6
b1101 ;
b10 _#
0=
0'
1@
1$
b0 A
b0 #
b0 `#
b1111 B
b1111 "
b1111 b#
b1111111100 <
b1111111100 (
b1111111100 T#
0|#
1)
#230000
0)
#235000
1F
b0 M
b0 W
1N
b1110 ;
b1110 6
1?
1%
0`"
b1110 >"
1B#
b10 8"
b1010000100000011 7"
b110110001110111 5"
1J#
1)
#240000
0)
#245000
0F
1E
0N
0Y
b110011001100101011101000110001101101000 J"
b0 _#
0@
0$
0J#
b0 d#
b0 ]#
0X#
1]"
1_"
b1000000 @"
b1111 >"
1?
1%
10
18
b1111 6
b1111 ;
1)
#250000
0)
#255000
1I
b1100 X
0E
b11011000110010001011111011100100111001100110001 J"
1Y
b1100 V
b10 N"
b1010000100000011 M"
b110110001110111 I"
b10000 ;
b10000 6
0?
0%
b100000 @"
1U#
b11 ?"
b1100 t#
b10 P#
b1000 x#
1^"
0]"
1`"
0_"
b10000 >"
0U"
0S"
bx T"
bx R"
b10 G"
b1000 K"
1Q"
bx E"
1)
#260000
0)
#265000
0I
b110110001100100011011010110010101101101 J"
bx [#
bx 2"
bx 1"
x,"
x+"
x*"
bx )"
b1 _#
1=
1'
1@
1$
b0 B
b0 "
b0 b#
b1100 <
b1100 (
b1100 T#
b0 7"
0Q"
b10 q#
b1010000100000011 p#
b110110001110111 n#
1W#
b1 @"
1S"
b1111111100 R"
bx R
bx v#
b1111111100 Q
b1111111100 u#
0^"
0`"
b10001 >"
b1 G"
b1000 3
b10001 6
b10001 ;
1-
1)
#270000
0)
#275000
1F
b100010000000100010011 M
b100010000000100010011 W
1N
b100010000000100010011 ^#
b10010 ;
b10010 6
1?
1%
b100010000000100010011 >
b100010000000100010011 &
b100010000000100010011 2
b100010000000100010011 L
1R#
b10010 >"
b0 G"
1J#
1)
#280000
0)
#285000
0F
1I
b1111111100 X
0N
b1111111100 B"
bx A"
b0 _#
0@
0$
0J#
b100010000000100010011 d#
b100010000000100010011 ]#
b1 \"
b10 ["
b10000100000000000 X"
1;#
0A#
b100010000000100010011 F"
1V#
0W#
0U#
1O#
1_"
b10011 >"
0H"
b100010000000100010011 >
b100010000000100010011 &
b100010000000100010011 2
b100010000000100010011 L
1?
1%
b10011 6
b10011 ;
1z#
1)
#290000
0)
#295000
0I
b0 ^#
b1100001011001000110010001101001 c#
b10100 ;
b10100 6
b0 >
b0 &
b0 2
b0 L
0?
0%
1`"
0_"
b10100 >"
b11 G"
1H"
b1 W"
1@#
1d"
0x"
b1 _#
0=
0'
1@
1$
b1111111100 <
b1111111100 (
b1111111100 T#
0z#
1)
#300000
0)
#305000
1F
b0 M
b0 W
1N
1J#
b1 :"
b10 9"
b100010000000100010011 7"
b1 6"
b1100001011001000110010001101001 5"
0B#
1D#
0`"
b10101 >"
1?
1%
b10101 6
b10101 ;
1)
#310000
0)
#315000
0F
0N
1E
0Y
b110011001100101011101000110001101101000 J"
1D"
b0 C"
b0 _#
0@
0$
b10110 ;
b10110 6
1?
1%
0V#
b1000000 @"
1]"
1_"
b0 w#
b10110 >"
b0 d#
b0 ]#
0J#
1)
#320000
0)
#325000
1I
b10000 X
0E
b0 A"
b11011000110010001011111011100100111001100110001 J"
1Y
b10000 V
b1 P"
b10 O"
b100010000000100010011 M"
b1 L"
b1100001011001000110010001101001 I"
bx C"
0D"
b1100 K"
1Q"
b100000 @"
1U#
b100 ?"
b10000 t#
0O#
0R#
b1100 x#
1^"
0]"
1`"
0_"
b10111 >"
0S"
bx R"
b10 G"
bx w#
0?
0%
b10111 6
b10111 ;
bx E"
1)
#330000
0)
#335000
0I
b1100101011110000110010101100011 J"
b1 -"
b1 [#
b0 2"
b0 1"
1,"
1+"
0*"
b1 )"
b1 _#
1=
1'
1@
1$
b10000 <
b10000 (
b10000 T#
b11000 ;
b1100 3
b11000 6
b1000 @"
1W#
b1 R
b1 v#
1S"
b0 R"
b0 Q
b0 u#
0^"
0`"
b11000 >"
b1 G"
b0 7"
0Q"
b1 s#
b10 r#
b100010000000100010011 p#
b1 o#
b1100001011001000110010001101001 n#
1,
1)
#340000
0)
#345000
1F
b1000001010000000100011 M
b1000001010000000100011 W
1N
b110011001100101011101000110001101101000 J"
1D"
b1 C"
b1000001010000000100011 ^#
1J#
b1000000 @"
1Q#
1R#
b1101 w#
b11001 >"
b0 G"
b1 0"
1?
1%
b1000001010000000100011 >
b1000001010000000100011 &
b1000001010000000100011 2
b1000001010000000100011 L
b11001 6
b11001 ;
1)
#350000
0)
#355000
0F
0U
0N
b0 X
1E
0Y
bx C"
0D"
b1 B"
b1111111100 A"
b0 _#
0@
0$
b11010 ;
b11010 6
b1000001010000000100011 >
b1000001010000000100011 &
b1000001010000000100011 2
b1000001010000000100011 L
1?
1%
0U#
0Q#
0R#
b10000 x#
0W#
1_"
b11010 >"
0H"
bx w#
b10 \"
b1 ["
b0 Y"
b1010000000000010 X"
0;#
1E#
b1000001010000000100011 F"
b1000001010000000100011 d#
b1000001010000000100011 ]#
0J#
bx E"
1)
#360000
0)
#365000
1I
b10100 X
0E
b0 N"
b10 P"
b1 O"
b0 L"
b1000001010000000100011 M"
b111001101110111 I"
bx -"
b111001101110111 c#
b11011000110010001011111011100100111001100110001 J"
1Y
b10100 V
b0 ^#
b10000 K"
1Q"
b0 W"
0D#
0@#
0d"
11#
b100000 @"
1U#
b101 ?"
b10100 t#
b0 P#
1`"
0_"
b11011 >"
0S"
bx R"
b0 >
b0 &
b0 2
b0 L
0?
0%
b10000 3
b11011 6
b11011 ;
bx E"
1+
1)
#370000
0)
#375000
0I
b111001101110100011011010110010101101101 J"
b111111110 2"
b11111111000 1"
0,"
0+"
b1111111101 )"
b1 _#
1@
1$
b10100 <
b10100 (
b10100 T#
b11100 ;
b11100 6
1W#
b10 @"
1U"
b1 T"
b1 y#
1S"
b1111111100 R"
b1 R
b1 v#
b1111111100 Q
b1111111100 u#
0`"
b11100 >"
bx 0"
b0 8"
b10 :"
b1 9"
b1000001010000000100011 7"
b0 6"
b111001101110111 5"
0Q"
b0 q#
b10 s#
b1 r#
b1000001010000000100011 p#
b0 o#
b111001101110111 n#
1)
#380000
0)
#385000
1F
b11111111010111111111000001101111 M
b11111111010111111111000001101111 W
1N
b11111111010111111111000001101111 ^#
1J#
b11101 >"
bx y#
1?
1%
b11111111010111111111000001101111 >
b11111111010111111111000001101111 &
b11111111010111111111000001101111 2
b11111111010111111111000001101111 L
b11101 6
b11101 ;
1)
#390000
0)
#395000
0F
1K
0N
b1111111100 X
1U
bx B"
bx A"
b111001101110111 c#
b0 _#
0@
0$
b11110 ;
b11110 6
b11111111010111111111000001101111 >
b11111111010111111111000001101111 &
b11111111010111111111000001101111 2
b11111111010111111111000001101111 L
1?
1%
1X#
0W#
0U#
1_"
b11110 >"
b10101 \"
b11111 ["
b11111111111111111111111111110100 X"
0E#
1q"
b11111111010111111111000001101111 F"
b11111111010111111111000001101111 d#
b11111111010111111111000001101111 ]#
0J#
1|#
1)
#400000
0)
#405000
0K
b11010100110000101101100 c#
b0 ^#
b11111111111111111111111111110100 W"
01#
0D#
1C#
1`"
0_"
b11111 >"
b11 G"
1H"
b0 >
b0 &
b0 2
b0 L
0?
0%
b11111 6
b11111 ;
b10 _#
0=
0'
1@
1$
b1 A
b1 #
b1 `#
b1111 B
b1111 "
b1111 b#
b1111111100 <
b1111111100 (
b1111111100 T#
0|#
1)
#410000
0)
#415000
1F
b0 M
b0 W
1N
b1111111101 -"
b100000 ;
b100000 6
1?
1%
0`"
b100000 >"
1D#
b10101 :"
b11111 9"
b11111111010111111111000001101111 7"
b11111111111111111111111111110100 6"
b11010100110000101101100 5"
1J#
1)
#420000
0)
#425000
0F
1E
0N
0Y
b110011001100101011101000110001101101000 J"
b0 _#
0@
0$
0J#
b0 d#
b0 ]#
0X#
1]"
1_"
b1000000 @"
b100001 >"
b1111111101 0"
1?
1%
b100001 6
b100001 ;
1)
#430000
0)
