TPU/sandbox/systolic_arrays_64bit/out/tpu_top_tb.vcd
$date
	Tue Jun 10 15:33:59 2025
$end
$version
	Icarus Verilog
$end
$timescale
	1ps
$end
$scope module tb_tpu_top $end
$var wire 1 ! tpu_done $end
$var wire 1 " sram_write_enable_c0 $end
$var wire 1 # sram_write_enable_b0 $end
$var wire 1 $ sram_write_enable_a0 $end
$var wire 1024 % sram_wdata_c [1023:0] $end
$var wire 1024 & sram_wdata_b [1023:0] $end
$var wire 1024 ' sram_wdata_a [1023:0] $end
$var wire 6 ( sram_waddr_c [5:0] $end
$var wire 6 ) sram_waddr_b [5:0] $end
$var wire 6 * sram_waddr_a [5:0] $end
$var wire 10 + sram_raddr_w7 [9:0] $end
$var wire 10 , sram_raddr_w6 [9:0] $end
$var wire 10 - sram_raddr_w5 [9:0] $end
$var wire 10 . sram_raddr_w4 [9:0] $end
$var wire 10 / sram_raddr_w3 [9:0] $end
$var wire 10 0 sram_raddr_w2 [9:0] $end
$var wire 10 1 sram_raddr_w1 [9:0] $end
$var wire 10 2 sram_raddr_w0 [9:0] $end
$var wire 10 3 sram_raddr_d7 [9:0] $end
$var wire 10 4 sram_raddr_d6 [9:0] $end
$var wire 10 5 sram_raddr_d5 [9:0] $end
$var wire 10 6 sram_raddr_d4 [9:0] $end
$var wire 10 7 sram_raddr_d3 [9:0] $end
$var wire 10 8 sram_raddr_d2 [9:0] $end
$var wire 10 9 sram_raddr_d1 [9:0] $end
$var wire 10 : sram_raddr_d0 [9:0] $end
$var parameter 32 ; ARRAY_SIZE $end
$var parameter 32 < CLK_PERIOD $end
$var parameter 32 = DATA_WIDTH $end
$var parameter 32 > OUTPUT_DATA_WIDTH $end
$var parameter 32 ? SRAM_DATA_WIDTH $end
$var reg 1 @ clk $end
$var reg 64 A sram_rdata_d0 [63:0] $end
$var reg 64 B sram_rdata_d1 [63:0] $end
$var reg 64 C sram_rdata_d2 [63:0] $end
$var reg 64 D sram_rdata_d3 [63:0] $end
$var reg 64 E sram_rdata_d4 [63:0] $end
$var reg 64 F sram_rdata_d5 [63:0] $end
$var reg 64 G sram_rdata_d6 [63:0] $end
$var reg 64 H sram_rdata_d7 [63:0] $end
$var reg 64 I sram_rdata_w0 [63:0] $end
$var reg 64 J sram_rdata_w1 [63:0] $end
$var reg 64 K sram_rdata_w2 [63:0] $end
$var reg 64 L sram_rdata_w3 [63:0] $end
$var reg 64 M sram_rdata_w4 [63:0] $end
$var reg 64 N sram_rdata_w5 [63:0] $end
$var reg 64 O sram_rdata_w6 [63:0] $end
$var reg 64 P sram_rdata_w7 [63:0] $end
$var reg 1 Q srstn $end
$var reg 1 R tpu_start $end
$scope module dut $end
$var wire 1 @ clk $end
$var wire 64 S sram_rdata_d0 [63:0] $end
$var wire 64 T sram_rdata_d1 [63:0] $end
$var wire 64 U sram_rdata_d2 [63:0] $end
$var wire 64 V sram_rdata_d3 [63:0] $end
$var wire 64 W sram_rdata_d4 [63:0] $end
$var wire 64 X sram_rdata_d5 [63:0] $end
$var wire 64 Y sram_rdata_d6 [63:0] $end
$var wire 64 Z sram_rdata_d7 [63:0] $end
$var wire 64 [ sram_rdata_w0 [63:0] $end
$var wire 64 \ sram_rdata_w1 [63:0] $end
$var wire 64 ] sram_rdata_w2 [63:0] $end
$var wire 64 ^ sram_rdata_w3 [63:0] $end
$var wire 64 _ sram_rdata_w4 [63:0] $end
$var wire 64 ` sram_rdata_w5 [63:0] $end
$var wire 64 a sram_rdata_w6 [63:0] $end
$var wire 64 b sram_rdata_w7 [63:0] $end
$var wire 1 Q srstn $end
$var wire 1 R tpu_start $end
$var wire 1 ! tpu_done $end
$var wire 1 " sram_write_enable_c0 $end
$var wire 1 # sram_write_enable_b0 $end
$var wire 1 $ sram_write_enable_a0 $end
$var wire 1 c sram_write_enable $end
$var wire 1024 d sram_wdata_c [1023:0] $end
$var wire 1024 e sram_wdata_b [1023:0] $end
$var wire 1024 f sram_wdata_a [1023:0] $end
$var wire 6 g sram_waddr_c [5:0] $end
$var wire 6 h sram_waddr_b [5:0] $end
$var wire 6 i sram_waddr_a [5:0] $end
$var wire 10 j sram_raddr_w7 [9:0] $end
$var wire 10 k sram_raddr_w6 [9:0] $end
$var wire 10 l sram_raddr_w5 [9:0] $end
$var wire 10 m sram_raddr_w4 [9:0] $end
$var wire 10 n sram_raddr_w3 [9:0] $end
$var wire 10 o sram_raddr_w2 [9:0] $end
$var wire 10 p sram_raddr_w1 [9:0] $end
$var wire 10 q sram_raddr_w0 [9:0] $end
$var wire 10 r sram_raddr_d7 [9:0] $end
$var wire 10 s sram_raddr_d6 [9:0] $end
$var wire 10 t sram_raddr_d5 [9:0] $end
$var wire 10 u sram_raddr_d4 [9:0] $end
$var wire 10 v sram_raddr_d3 [9:0] $end
$var wire 10 w sram_raddr_d2 [9:0] $end
$var wire 10 x sram_raddr_d1 [9:0] $end
$var wire 10 y sram_raddr_d0 [9:0] $end
$var wire 1024 z quantized_data [1023:0] $end
$var wire 1184 { ori_data [1183:0] $end
$var wire 6 | matrix_index [5:0] $end
$var wire 2 } data_set [1:0] $end
$var wire 9 ~ cycle_num [8:0] $end
$var wire 1 !" alu_start $end
$var wire 7 "" addr_serial_num [6:0] $end
$var parameter 32 #" ARRAY_SIZE $end
$var parameter 32 $" DATA_WIDTH $end
$var parameter 34 %" ORI_WIDTH $end
$var parameter 32 &" OUTPUT_DATA_WIDTH $end
$var parameter 32 '" SRAM_DATA_WIDTH $end
$scope module addr_sel_inst $end
$var wire 1 @ clk $end
$var wire 10 (" sram_raddr_w7_nx [9:0] $end
$var wire 10 )" sram_raddr_w6_nx [9:0] $end
$var wire 10 *" sram_raddr_w5_nx [9:0] $end
$var wire 10 +" sram_raddr_w4_nx [9:0] $end
$var wire 10 ," sram_raddr_w3_nx [9:0] $end
$var wire 10 -" sram_raddr_w2_nx [9:0] $end
$var wire 10 ." sram_raddr_w1_nx [9:0] $end
$var wire 10 /" sram_raddr_w0_nx [9:0] $end
$var wire 10 0" sram_raddr_d7_nx [9:0] $end
$var wire 10 1" sram_raddr_d6_nx [9:0] $end
$var wire 10 2" sram_raddr_d5_nx [9:0] $end
$var wire 10 3" sram_raddr_d4_nx [9:0] $end
$var wire 10 4" sram_raddr_d3_nx [9:0] $end
$var wire 10 5" sram_raddr_d2_nx [9:0] $end
$var wire 10 6" sram_raddr_d1_nx [9:0] $end
$var wire 10 7" sram_raddr_d0_nx [9:0] $end
$var wire 7 8" addr_serial_num [6:0] $end
$var reg 10 9" sram_raddr_d0 [9:0] $end
$var reg 10 :" sram_raddr_d1 [9:0] $end
$var reg 10 ;" sram_raddr_d2 [9:0] $end
$var reg 10 <" sram_raddr_d3 [9:0] $end
$var reg 10 =" sram_raddr_d4 [9:0] $end
$var reg 10 >" sram_raddr_d5 [9:0] $end
$var reg 10 ?" sram_raddr_d6 [9:0] $end
$var reg 10 @" sram_raddr_d7 [9:0] $end
$var reg 10 A" sram_raddr_w0 [9:0] $end
$var reg 10 B" sram_raddr_w1 [9:0] $end
$var reg 10 C" sram_raddr_w2 [9:0] $end
$var reg 10 D" sram_raddr_w3 [9:0] $end
$var reg 10 E" sram_raddr_w4 [9:0] $end
$var reg 10 F" sram_raddr_w5 [9:0] $end
$var reg 10 G" sram_raddr_w6 [9:0] $end
$var reg 10 H" sram_raddr_w7 [9:0] $end
$upscope $end
$scope module quantize_inst $end
$var wire 1184 I" ori_data [1183:0] $end
$var parameter 32 J" ARRAY_SIZE $end
$var parameter 32 K" DATA_WIDTH $end
$var parameter 34 L" ORI_WIDTH $end
$var parameter 32 M" OUTPUT_DATA_WIDTH $end
$var parameter 32 N" SRAM_DATA_WIDTH $end
$var parameter 32 O" max_val $end
$var parameter 32 P" min_val $end
$var reg 37 Q" ori_shifted_data [36:0] $end
$var reg 1024 R" quantized_data [1023:0] $end
$var integer 32 S" i [31:0] $end
$upscope $end
$scope module systolic_controller_inst $end
$var wire 1 @ clk $end
$var wire 1 Q rst_n $end
$var wire 1 R tpu_start $end
$var parameter 32 T" ARRAY_SIZE $end
$var parameter 65 U" CYCLES_RESULT_READY $end
$var parameter 3 V" IDLE $end
$var parameter 3 W" LOAD_DATA $end
$var parameter 3 X" ROLLING $end
$var parameter 3 Y" WAIT1 $end
$var reg 7 Z" addr_serial_num [6:0] $end
$var reg 7 [" addr_serial_num_nx [6:0] $end
$var reg 1 !" alu_start $end
$var reg 9 \" cycle_num [8:0] $end
$var reg 9 ]" cycle_num_nx [8:0] $end
$var reg 2 ^" data_set [1:0] $end
$var reg 2 _" data_set_nx [1:0] $end
$var reg 6 `" matrix_index [5:0] $end
$var reg 5 a" matrix_index_nx [4:0] $end
$var reg 1 c sram_write_enable $end
$var reg 3 b" state [2:0] $end
$var reg 3 c" state_nx [2:0] $end
$var reg 1 ! tpu_done $end
$var reg 1 d" tpu_done_nx $end
$upscope $end
$scope module systolic_inst $end
$var wire 1 !" alu_start $end
$var wire 1 @ clk $end
$var wire 9 e" cycle_num [8:0] $end
$var wire 6 f" matrix_index [5:0] $end
$var wire 1 Q rst_n $end
$var wire 64 g" sram_rdata_d0 [63:0] $end
$var wire 64 h" sram_rdata_d1 [63:0] $end
$var wire 64 i" sram_rdata_d2 [63:0] $end
$var wire 64 j" sram_rdata_d3 [63:0] $end
$var wire 64 k" sram_rdata_d4 [63:0] $end
$var wire 64 l" sram_rdata_d5 [63:0] $end
$var wire 64 m" sram_rdata_d6 [63:0] $end
$var wire 64 n" sram_rdata_d7 [63:0] $end
$var wire 64 o" sram_rdata_w0 [63:0] $end
$var wire 64 p" sram_rdata_w1 [63:0] $end
$var wire 64 q" sram_rdata_w2 [63:0] $end
$var wire 64 r" sram_rdata_w3 [63:0] $end
$var wire 64 s" sram_rdata_w4 [63:0] $end
$var wire 64 t" sram_rdata_w5 [63:0] $end
$var wire 64 u" sram_rdata_w6 [63:0] $end
$var wire 64 v" sram_rdata_w7 [63:0] $end
$var parameter 32 w" ARRAY_SIZE $end
$var parameter 32 x" DATA_WIDTH $end
$var parameter 32 y" FIRST_OUT $end
$var parameter 34 z" OUTCOME_WIDTH $end
$var parameter 32 {" PARALLEL_START $end
$var parameter 32 |" SRAM_DATA_WIDTH $end
$var reg 6 }" lower_bound [5:0] $end
$var reg 1184 ~" mul_outcome [1183:0] $end
$var reg 32 !# mul_result [31:0] $end
$var reg 6 "# upper_bound [5:0] $end
$var integer 32 ## i [31:0] $end
$var integer 32 $# j [31:0] $end
$upscope $end
$scope module write_out_inst $end
$var wire 1 @ clk $end
$var wire 2 %# data_set [1:0] $end
$var wire 6 &# matrix_index [5:0] $end
$var wire 1024 '# quantized_data [1023:0] $end
$var wire 1 c sram_write_enable $end
$var wire 1 Q srstn $end
$var parameter 32 (# ARRAY_SIZE $end
$var parameter 33 )# MAX_INDEX $end
$var parameter 32 *# OUTPUT_DATA_WIDTH $end
$var reg 6 +# sram_waddr_a [5:0] $end
$var reg 6 ,# sram_waddr_a_nx [5:0] $end
$var reg 6 -# sram_waddr_b [5:0] $end
$var reg 6 .# sram_waddr_b_nx [5:0] $end
$var reg 6 /# sram_waddr_c [5:0] $end
$var reg 6 0# sram_waddr_c_nx [5:0] $end
$var reg 1024 1# sram_wdata_a [1023:0] $end
$var reg 1024 2# sram_wdata_a_nx [1023:0] $end
$var reg 1024 3# sram_wdata_b [1023:0] $end
$var reg 1024 4# sram_wdata_b_nx [1023:0] $end
$var reg 1024 5# sram_wdata_c [1023:0] $end
$var reg 1024 6# sram_wdata_c_nx [1023:0] $end
$var reg 1 $ sram_write_enable_a0 $end
$var reg 1 7# sram_write_enable_a0_nx $end
$var reg 1 # sram_write_enable_b0 $end
$var reg 1 8# sram_write_enable_b0_nx $end
$var reg 1 " sram_write_enable_c0 $end
$var reg 1 9# sram_write_enable_c0_nx $end
$var integer 32 :# i [31:0] $end
$upscope $end
$upscope $end
$upscope $end
$enddefinitions $end
$comment Show the parameter values. $end
$dumpall
b100000 *#
b11111 )#
b100000 (#
b1000000 |"
b1000001 {"
b100101 z"
b100001 y"
b10000 x"
b100000 w"
b10 Y"
b11 X"
b1 W"
b0 V"
b111111 U"
b100000 T"
b10000000000000000000000000000000 P"
b1111111111111111111111111111111 O"
b1000000 N"
b100000 M"
b100101 L"
b10000 K"
b100000 J"
b1000000 '"
b100000 &"
b100101 %"
b10000 $"
b100000 #"
b1000000 ?
b100000 >
b10000 =
b1010 <
b100000 ;
$end
#0
$dumpvars
bx :#
x9#
x8#
x7#
bx 6#
bx 5#
bx 4#
bx 3#
bx 2#
bx 1#
bx 0#
bx /#
bx .#
bx -#
bx ,#
bx +#
bx '#
bx &#
bx %#
bx $#
bx ##
bx "#
bx !#
bx ~"
bx }"
b0 v"
b0 u"
b0 t"
b0 s"
b0 r"
b0 q"
b0 p"
b0 o"
b0 n"
b0 m"
b0 l"
b0 k"
b0 j"
b0 i"
b0 h"
b0 g"
bx f"
bx e"
0d"
b0 c"
bx b"
bx a"
bx `"
bx _"
bx ^"
bx ]"
bx \"
b0 ["
bx Z"
bx S"
bx R"
bx Q"
bx I"
bx H"
bx G"
bx F"
bx E"
bx D"
bx C"
bx B"
bx A"
bx @"
bx ?"
bx >"
bx ="
bx <"
bx ;"
bx :"
bx 9"
bx 8"
b0xxxxxxx 7"
b0xxxxxxx 6"
b0xxxxxxx 5"
b0xxxxxxx 4"
b0xxxxxxx 3"
b0xxxxxxx 2"
b0xxxxxxx 1"
b0xxxxxxx 0"
b0xxxxxxx /"
b0xxxxxxx ."
b0xxxxxxx -"
b0xxxxxxx ,"
b0xxxxxxx +"
b0xxxxxxx *"
b0xxxxxxx )"
b0xxxxxxx ("
bx ""
x!"
bx ~
bx }
bx |
bx {
bx z
bx y
bx x
bx w
bx v
bx u
bx t
bx s
bx r
bx q
bx p
bx o
bx n
bx m
bx l
bx k
bx j
bx i
bx h
bx g
bx f
bx e
bx d
xc
b0 b
b0 a
b0 `
b0 _
b0 ^
b0 ]
b0 \
b0 [
b0 Z
b0 Y
b0 X
b0 W
b0 V
b0 U
b0 T
b0 S
0R
0Q
b0 P
b0 O
b0 N
b0 M
b0 L
b0 K
b0 J
b0 I
b0 H
b0 G
b0 F
b0 E
b0 D
b0 C
b0 B
b0 A
0@
bx :
bx 9
bx 8
bx 7
bx 6
bx 5
bx 4
bx 3
bx 2
bx 1
bx 0
bx /
bx .
bx -
bx ,
bx +
bx *
bx )
bx (
bx '
bx &
bx %
x$
x#
x"
x!
$end
#5000
b0 z
b0 R"
b0 '#
b0 Q"
b100000 S"
b1111111 0"
b1111111 1"
b1111111 2"
b1111111 3"
b1111111 4"
b1111111 5"
b1111111 6"
b0 7"
b1111111 ("
b1111111 )"
b1111111 *"
b1111111 +"
b1111111 ,"
b1111111 -"
b1111111 ."
b0 /"
b0 {
b0 I"
b0 ~"
b100000 }"
b0 "#
b0 !#
b0 0#
b0 6#
19#
b0 .#
b0 4#
18#
b0 ,#
b0 2#
b10000000000 :#
17#
0c
b0 _"
b0 a"
b0 ]"
0!"
b0xxxxxxx 3
b0xxxxxxx r
b0xxxxxxx @"
b0xxxxxxx 4
b0xxxxxxx s
b0xxxxxxx ?"
b0xxxxxxx 5
b0xxxxxxx t
b0xxxxxxx >"
b0xxxxxxx 6
b0xxxxxxx u
b0xxxxxxx ="
b0xxxxxxx 7
b0xxxxxxx v
b0xxxxxxx <"
b0xxxxxxx 8
b0xxxxxxx w
b0xxxxxxx ;"
b0xxxxxxx 9
b0xxxxxxx x
b0xxxxxxx :"
b0xxxxxxx :
b0xxxxxxx y
b0xxxxxxx 9"
b0xxxxxxx +
b0xxxxxxx j
b0xxxxxxx H"
b0xxxxxxx ,
b0xxxxxxx k
b0xxxxxxx G"
b0xxxxxxx -
b0xxxxxxx l
b0xxxxxxx F"
b0xxxxxxx .
b0xxxxxxx m
b0xxxxxxx E"
b0xxxxxxx /
b0xxxxxxx n
b0xxxxxxx D"
b0xxxxxxx 0
b0xxxxxxx o
b0xxxxxxx C"
b0xxxxxxx 1
b0xxxxxxx p
b0xxxxxxx B"
b0xxxxxxx 2
b0xxxxxxx q
b0xxxxxxx A"
0!
b0 ""
b0 8"
b0 Z"
b0 |
b0 `"
b0 f"
b0 &#
b0 ~
b0 \"
b0 e"
b0 }
b0 ^"
b0 %#
b0 b"
b0 (
b0 g
b0 /#
b0 )
b0 h
b0 -#
b0 *
b0 i
b0 +#
b0 %
b0 d
b0 5#
b0 &
b0 e
b0 3#
b0 '
b0 f
b0 1#
1"
1#
1$
b100000 $#
b100000 ##
1@
#10000
0@
#15000
b1111111 3
b1111111 r
b1111111 @"
b1111111 4
b1111111 s
b1111111 ?"
b1111111 5
b1111111 t
b1111111 >"
b1111111 6
b1111111 u
b1111111 ="
b1111111 7
b1111111 v
b1111111 <"
b1111111 8
b1111111 w
b1111111 ;"
b1111111 9
b1111111 x
b1111111 :"
b0 :
b0 y
b0 9"
b1111111 +
b1111111 j
b1111111 H"
b1111111 ,
b1111111 k
b1111111 G"
b1111111 -
b1111111 l
b1111111 F"
b1111111 .
b1111111 m
b1111111 E"
b1111111 /
b1111111 n
b1111111 D"
b1111111 0
b1111111 o
b1111111 C"
b1111111 1
b1111111 p
b1111111 B"
b0 2
b0 q
b0 A"
b100000 $#
b100000 ##
1@
#20000
0@
#25000
b100000 $#
b100000 ##
1@
#30000
0@
#35000
b100000 $#
b100000 ##
1@
#40000
0@
#45000
b100000 $#
b100000 ##
1@
#50000
0@
#55000
b100000 $#
b100000 ##
1@
#60000
0@
#65000
b100000 $#
b100000 ##
1@
#70000
0@
#75000
b100000 $#
b100000 ##
1@
#80000
0@
#85000
b100000 $#
b100000 ##
1@
#90000
0@
#95000
b1 c"
1R
b100000 $#
b100000 ##
1@
#100000
0@
#105000
b0 c"
b100000 $#
b100000 ##
0R
1@
#110000
0@
#115000
b100000 $#
b100000 ##
1@
#120000
0@
#125000
b100000 $#
b100000 ##
1@
#130000
0@
#135000
b100000 $#
b100000 ##
1@
#140000
0@
#145000
b100000 $#
b100000 ##
1@
#150000
0@
#155000
b100000 $#
b100000 ##
1@
#160000
0@
#165000
b100000 $#
b100000 ##
1@
#170000
0@
#175000
b100000 $#
b100000 ##
1@
#180000
0@
#185000
b100000 $#
b100000 ##
1@
#190000
0@
#195000
b100000 $#
b100000 ##
1@
#200000
0@
#205000
b100000 $#
b100000 ##
1@
#210000
0@
#215000
b100000 $#
b100000 ##
1@
#220000
0@
#225000
b100000 $#
b100000 ##
1@
#230000
0@
#235000
b100000 $#
b100000 ##
1@
#240000
0@
#245000
b100000 $#
b100000 ##
1@
#250000
0@
#255000
b100000 $#
b100000 ##
1@
#260000
0@
#265000
b100000 $#
b100000 ##
1@
#270000
0@
#275000
b100000 $#
b100000 ##
1@
#280000
0@
#285000
b100000 $#
b100000 ##
1@
#290000
0@
#295000
b100000 $#
b100000 ##
1@
#300000
0@
#305000
b100000 $#
b100000 ##
1@
#310000
0@
#315000
b100000 $#
b100000 ##
1@
#320000
0@
#325000
b100000 $#
b100000 ##
1@
#330000
0@
#335000
b100000 $#
b100000 ##
1@
#340000
0@
#345000
b100000 $#
b100000 ##
1@
#350000
0@
#355000
b100000 $#
b100000 ##
1@
#360000
0@
#365000
b100000 $#
b100000 ##
1@
#370000
0@
#375000
b100000 $#
b100000 ##
1@
#380000
0@
#385000
b100000 $#
b100000 ##
1@
#390000
0@
#395000
b100000 $#
b100000 ##
1@
#400000
0@
#405000
b100000 $#
b100000 ##
1@
#410000
0@
#415000
b100000 $#
b100000 ##
1@
#420000
0@
#425000
b100000 $#
b100000 ##
1@
#430000
0@
#435000
b100000 $#
b100000 ##
1@
#440000
0@
#445000
b100000 $#
b100000 ##
1@
#450000
0@
#455000
b100000 $#
b100000 ##
1@
#460000
0@
#465000
b100000 $#
b100000 ##
1@
#470000
0@
#475000
b100000 $#
b100000 ##
1@
#480000
0@
#485000
b100000 $#
b100000 ##
1@
#490000
0@
#495000
b100000 $#
b100000 ##
1@
#500000
0@
#505000
b100000 $#
b100000 ##
1@
#510000
0@
#515000
b100000 $#
b100000 ##
1@
#520000
0@
#525000
b100000 $#
b100000 ##
1@
#530000
0@
#535000
b100000 $#
b100000 ##
1@
#540000
0@
#545000
b100000 $#
b100000 ##
1@
#550000
0@
#555000
b100000 $#
b100000 ##
1@
#560000
0@
#565000
b100000 $#
b100000 ##
1@
#570000
0@
#575000
b100000 $#
b100000 ##
1@
#580000
0@
#585000
b100000 $#
b100000 ##
1@
#590000
0@
#595000
b100000 $#
b100000 ##
1@
#600000
0@
#605000
b100000 $#
b100000 ##
1@
#610000
0@
#615000
b100000 $#
b100000 ##
1@
#620000
0@
#625000
b100000 $#
b100000 ##
1@
#630000
0@
#635000
b100000 $#
b100000 ##
1@
#640000
0@
#645000
b100000 $#
b100000 ##
1@
#650000
0@
#655000
b100000 $#
b100000 ##
1@
#660000
0@
#665000
b100000 $#
b100000 ##
1@
#670000
0@
#675000
b100000 $#
b100000 ##
1@
#680000
0@
#685000
b100000 $#
b100000 ##
1@
#690000
0@
#695000
b100000 $#
b100000 ##
1@
#700000
0@
#705000
b100000 $#
b100000 ##
1@
#710000
0@
#715000
b100000 $#
b100000 ##
1@
#720000
0@
#725000
b100000 $#
b100000 ##
1@
#730000
0@
#735000
b100000 $#
b100000 ##
1@
#740000
0@
#745000
b100000 $#
b100000 ##
1@
#750000
0@
#755000
b100000 $#
b100000 ##
1@
#760000
0@
#765000
b100000 $#
b100000 ##
1@
#770000
0@
#775000
b100000 $#
b100000 ##
1@
#780000
0@
#785000
b100000 $#
b100000 ##
1@
#790000
0@
#795000
b100000 $#
b100000 ##
1@
#800000
0@
#805000
b100000 $#
b100000 ##
1@
#810000
0@
#815000
b100000 $#
b100000 ##
1@
#820000
0@
#825000
b100000 $#
b100000 ##
1@
#830000
0@
#835000
b100000 $#
b100000 ##
1@
#840000
0@
#845000
b100000 $#
b100000 ##
1@
#850000
0@
#855000
b100000 $#
b100000 ##
1@
#860000
0@
#865000
b100000 $#
b100000 ##
1@
#870000
0@
#875000
b100000 $#
b100000 ##
1@
#880000
0@
#885000
b100000 $#
b100000 ##
1@
#890000
0@
#895000
b100000 $#
b100000 ##
1@
#900000
0@
#905000
b100000 $#
b100000 ##
1@
#910000
0@
#915000
b100000 $#
b100000 ##
1@
#920000
0@
#925000
b100000 $#
b100000 ##
1@
#930000
0@
#935000
b100000 $#
b100000 ##
1@
#940000
0@
#945000
b100000 $#
b100000 ##
1@
#950000
0@
#955000
b100000 $#
b100000 ##
1@
#960000
0@
#965000
b100000 $#
b100000 ##
1@
#970000
0@
#975000
b100000 $#
b100000 ##
1@
#980000
0@
#985000
b100000 $#
b100000 ##
1@
#990000
0@
#995000
b100000 $#
b100000 ##
1@
#1000000
0@
#1005000
b100000 $#
b100000 ##
1@
#1010000
0@
#1015000
b100000 $#
b100000 ##
1@
#1020000
0@
#1025000
b100000 $#
b100000 ##
1@
#1030000
0@
#1035000
b100000 $#
b100000 ##
1@
#1040000
0@
#1045000
b100000 $#
b100000 ##
1@
#1050000
0@
#1055000
b100000 $#
b100000 ##
1@
#1060000
0@
#1065000
b100000 $#
b100000 ##
1@
#1070000
0@
#1075000
b100000 $#
b100000 ##
1@
#1080000
0@
#1085000
b100000 $#
b100000 ##
1@
#1090000
0@
#1095000
b100000 $#
b100000 ##
1@
#1100000
0@
#1105000
b100000 $#
b100000 ##
1@
#1110000
0@
#1115000
b100000 $#
b100000 ##
1@
#1120000
0@
#1125000
b100000 $#
b100000 ##
1@
#1130000
0@
#1135000
b100000 $#
b100000 ##
1@
#1140000
0@
#1145000
b100000 $#
b100000 ##
1@
#1150000
0@
#1155000
b100000 $#
b100000 ##
1@
#1160000
0@
#1165000
b100000 $#
b100000 ##
1@
#1170000
0@
#1175000
b100000 $#
b100000 ##
1@
#1180000
0@
#1185000
b100000 $#
b100000 ##
1@
#1190000
0@
#1195000
b100000 $#
b100000 ##
1@
#1200000
0@
#1205000
b100000 $#
b100000 ##
1@
#1210000
0@
#1215000
b100000 $#
b100000 ##
1@
#1220000
0@
#1225000
b100000 $#
b100000 ##
1@
#1230000
0@
#1235000
b100000 $#
b100000 ##
1@
#1240000
0@
#1245000
b100000 $#
b100000 ##
1@
#1250000
0@
#1255000
b100000 $#
b100000 ##
1@
#1260000
0@
#1265000
b100000 $#
b100000 ##
1@
#1270000
0@
#1275000
b100000 $#
b100000 ##
1@
#1280000
0@
#1285000
b100000 $#
b100000 ##
1@
#1290000
0@
#1295000
b100000 $#
b100000 ##
1@
#1300000
0@
#1305000
b100000 $#
b100000 ##
1@
#1310000
0@
#1315000
b100000 $#
b100000 ##
1@
#1320000
0@
#1325000
b100000 $#
b100000 ##
1@
#1330000
0@
#1335000
b100000 $#
b100000 ##
1@
#1340000
0@
#1345000
b100000 $#
b100000 ##
1@
#1350000
0@
#1355000
b100000 $#
b100000 ##
1@
#1360000
0@
#1365000
b100000 $#
b100000 ##
1@
#1370000
0@
#1375000
b100000 $#
b100000 ##
1@
#1380000
0@
#1385000
b100000 $#
b100000 ##
1@
#1390000
0@
#1395000
b100000 $#
b100000 ##
1@
#1400000
0@
#1405000
b100000 $#
b100000 ##
1@
#1410000
0@
#1415000
b100000 $#
b100000 ##
1@
#1420000
0@
#1425000
b100000 $#
b100000 ##
1@
#1430000
0@
#1435000
b100000 $#
b100000 ##
1@
#1440000
0@
#1445000
b100000 $#
b100000 ##
1@
#1450000
0@
#1455000
b100000 $#
b100000 ##
1@
#1460000
0@
#1465000
b100000 $#
b100000 ##
1@
#1470000
0@
#1475000
b100000 $#
b100000 ##
1@
#1480000
0@
#1485000
b100000 $#
b100000 ##
1@
#1490000
0@
#1495000
b100000 $#
b100000 ##
1@
#1500000
0@
#1505000
b100000 $#
b100000 ##
1@
#1510000
0@
#1515000
b100000 $#
b100000 ##
1@
#1520000
0@
#1525000
b100000 $#
b100000 ##
1@
#1530000
0@
#1535000
b100000 $#
b100000 ##
1@
#1540000
0@
#1545000
b100000 $#
b100000 ##
1@
#1550000
0@
#1555000
b100000 $#
b100000 ##
1@
#1560000
0@
#1565000
b100000 $#
b100000 ##
1@
#1570000
0@
#1575000
b100000 $#
b100000 ##
1@
#1580000
0@
#1585000
b100000 $#
b100000 ##
1@
#1590000
0@
#1595000
b100000 $#
b100000 ##
1@
#1600000
0@
#1605000
b100000 $#
b100000 ##
1@
#1610000
0@
#1615000
b100000 $#
b100000 ##
1@
#1620000
0@
#1625000
b100000 $#
b100000 ##
1@
#1630000
0@
#1635000
b100000 $#
b100000 ##
1@
#1640000
0@
#1645000
b100000 $#
b100000 ##
1@
#1650000
0@
#1655000
b100000 $#
b100000 ##
1@
#1660000
0@
#1665000
b100000 $#
b100000 ##
1@
#1670000
0@
#1675000
b100000 $#
b100000 ##
1@
#1680000
0@
#1685000
b100000 $#
b100000 ##
1@
#1690000
0@
#1695000
b100000 $#
b100000 ##
1@
#1700000
0@
#1705000
b100000 $#
b100000 ##
1@
#1710000
0@
#1715000
b100000 $#
b100000 ##
1@
#1720000
0@
#1725000
b100000 $#
b100000 ##
1@
#1730000
0@
#1735000
b100000 $#
b100000 ##
1@
#1740000
0@
#1745000
b100000 $#
b100000 ##
1@
#1750000
0@
#1755000
b100000 $#
b100000 ##
1@
#1760000
0@
#1765000
b100000 $#
b100000 ##
1@
#1770000
0@
#1775000
b100000 $#
b100000 ##
1@
#1780000
0@
#1785000
b100000 $#
b100000 ##
1@
#1790000
0@
#1795000
b100000 $#
b100000 ##
1@
#1800000
0@
#1805000
b100000 $#
b100000 ##
1@
#1810000
0@
#1815000
b100000 $#
b100000 ##
1@
#1820000
0@
#1825000
b100000 $#
b100000 ##
1@
#1830000
0@
#1835000
b100000 $#
b100000 ##
1@
#1840000
0@
#1845000
b100000 $#
b100000 ##
1@
#1850000
0@
#1855000
b100000 $#
b100000 ##
1@
#1860000
0@
#1865000
b100000 $#
b100000 ##
1@
#1870000
0@
#1875000
b100000 $#
b100000 ##
1@
#1880000
0@
#1885000
b100000 $#
b100000 ##
1@
#1890000
0@
#1895000
b100000 $#
b100000 ##
1@
#1900000
0@
#1905000
b100000 $#
b100000 ##
1@
#1910000
0@
#1915000
b100000 $#
b100000 ##
1@
#1920000
0@
#1925000
b100000 $#
b100000 ##
1@
#1930000
0@
#1935000
b100000 $#
b100000 ##
1@
#1940000
0@
#1945000
b100000 $#
b100000 ##
1@
#1950000
0@
#1955000
b100000 $#
b100000 ##
1@
#1960000
0@
#1965000
b100000 $#
b100000 ##
1@
#1970000
0@
#1975000
b100000 $#
b100000 ##
1@
#1980000
0@
#1985000
b100000 $#
b100000 ##
1@
#1990000
0@
#1995000
b100000 $#
b100000 ##
1@
#2000000
0@
#2005000
b100000 $#
b100000 ##
1@
#2010000
0@
#2015000
b100000 $#
b100000 ##
1@
#2020000
0@
#2025000
b100000 $#
b100000 ##
1@
#2030000
0@
#2035000
b100000 $#
b100000 ##
1@
#2040000
0@
#2045000
b100000 $#
b100000 ##
1@
#2050000
0@
#2055000
b100000 $#
b100000 ##
1@
#2060000
0@
#2065000
b100000 $#
b100000 ##
1@
#2070000
0@
#2075000
b100000 $#
b100000 ##
1@
#2080000
0@
#2085000
b100000 $#
b100000 ##
1@
#2090000
0@
#2095000
b100000 $#
b100000 ##
1@
#2100000
0@
#2105000
b100000 $#
b100000 ##
1@
#2110000
0@
#2115000
b100000 $#
b100000 ##
1@
#2120000
0@
#2125000
b100000 $#
b100000 ##
1@
#2130000
0@
#2135000
b100000 $#
b100000 ##
1@
#2140000
0@
#2145000
b100000 $#
b100000 ##
1@
#2150000
0@
#2155000
b100000 $#
b100000 ##
1@
#2160000
0@
#2165000
b100000 $#
b100000 ##
1@
