TOP-SoC/sandbox/SoC-32bit/TestbenchCPU-RAM/tb_cpu_system.vcd
$date
	Sun Jun 22 15:15:45 2025
$end
$version
	Icarus Verilog
$end
$timescale
	1ps
$end
$scope module tb_cpu_system $end
$var wire 32 ! dram_dq [31:0] $end
$var wire 1 " trap $end
$var wire 4 # mem_wstrb [3:0] $end
$var wire 32 $ mem_wdata [31:0] $end
$var wire 1 % mem_valid $end
$var wire 1 & mem_ready $end
$var wire 32 ' mem_rdata [31:0] $end
$var wire 1 ( mem_instr $end
$var wire 32 ) mem_addr [31:0] $end
$var wire 1 * dram_we $end
$var wire 1 + dram_ras $end
$var wire 1 , dram_dqs $end
$var wire 4 - dram_dm [3:0] $end
$var wire 1 . dram_cs $end
$var wire 1 / dram_ck $end
$var wire 1 0 dram_cas $end
$var wire 3 1 dram_ba [2:0] $end
$var wire 14 2 dram_addr [13:0] $end
$var wire 1 3 axi_wvalid $end
$var wire 4 4 axi_wstrb [3:0] $end
$var wire 1 5 axi_wready $end
$var wire 1 6 axi_wlast $end
$var wire 32 7 axi_wdata [31:0] $end
$var wire 1 8 axi_rvalid $end
$var wire 2 9 axi_rresp [1:0] $end
$var wire 1 : axi_rready $end
$var wire 1 ; axi_rlast $end
$var wire 4 < axi_rid [3:0] $end
$var wire 32 = axi_rdata [31:0] $end
$var wire 1 > axi_bvalid $end
$var wire 2 ? axi_bresp [1:0] $end
$var wire 1 @ axi_bready $end
$var wire 4 A axi_bid [3:0] $end
$var wire 1 B axi_awvalid $end
$var wire 3 C axi_awsize [2:0] $end
$var wire 1 D axi_awready $end
$var wire 8 E axi_awlen [7:0] $end
$var wire 4 F axi_awid [3:0] $end
$var wire 2 G axi_awburst [1:0] $end
$var wire 32 H axi_awaddr [31:0] $end
$var wire 1 I axi_arvalid $end
$var wire 3 J axi_arsize [2:0] $end
$var wire 1 K axi_arready $end
$var wire 8 L axi_arlen [7:0] $end
$var wire 4 M axi_arid [3:0] $end
$var wire 2 N axi_arburst [1:0] $end
$var wire 32 O axi_araddr [31:0] $end
$var parameter 32 P ADDR_WIDTH $end
$var parameter 32 Q AXI4_ID_WIDTH $end
$var parameter 32 R CLK_PERIOD $end
$var parameter 32 S DATA_WIDTH $end
$var reg 1 T clk $end
$var reg 32 U instruction_counter [31:0] $end
$var reg 1 V resetn $end
$var reg 1 W test_complete $end
$var reg 32 X test_counter [31:0] $end
$scope module axi_master $end
$var wire 1 T aclk $end
$var wire 1 V aresetn $end
$var wire 1 Y is_read $end
$var wire 1 Z is_write $end
$var wire 4 [ mem_wstrb [3:0] $end
$var wire 32 \ mem_wdata [31:0] $end
$var wire 1 % mem_valid $end
$var wire 1 ( mem_instr $end
$var wire 32 ] mem_addr [31:0] $end
$var wire 1 5 m_axi_wready $end
$var wire 1 8 m_axi_rvalid $end
$var wire 2 ^ m_axi_rresp [1:0] $end
$var wire 1 ; m_axi_rlast $end
$var wire 4 _ m_axi_rid [3:0] $end
$var wire 32 ` m_axi_rdata [31:0] $end
$var wire 1 > m_axi_bvalid $end
$var wire 2 a m_axi_bresp [1:0] $end
$var wire 4 b m_axi_bid [3:0] $end
$var wire 1 D m_axi_awready $end
$var wire 1 K m_axi_arready $end
$var parameter 32 c ADDR_WIDTH $end
$var parameter 32 d DATA_WIDTH $end
$var parameter 2 e IDLE $end
$var parameter 32 f ID_WIDTH $end
$var parameter 2 g READING $end
$var parameter 4 h READ_ID $end
$var parameter 4 i WRITE_ID $end
$var parameter 2 j WRITE_RESP $end
$var parameter 2 k WRITING $end
$var reg 1 l aw_handshake_done $end
$var reg 2 m debug_state_writing [1:0] $end
$var reg 32 n m_axi_araddr [31:0] $end
$var reg 2 o m_axi_arburst [1:0] $end
$var reg 4 p m_axi_arid [3:0] $end
$var reg 8 q m_axi_arlen [7:0] $end
$var reg 3 r m_axi_arsize [2:0] $end
$var reg 1 I m_axi_arvalid $end
$var reg 32 s m_axi_awaddr [31:0] $end
$var reg 2 t m_axi_awburst [1:0] $end
$var reg 4 u m_axi_awid [3:0] $end
$var reg 8 v m_axi_awlen [7:0] $end
$var reg 3 w m_axi_awsize [2:0] $end
$var reg 1 B m_axi_awvalid $end
$var reg 1 @ m_axi_bready $end
$var reg 1 : m_axi_rready $end
$var reg 32 x m_axi_wdata [31:0] $end
$var reg 1 6 m_axi_wlast $end
$var reg 4 y m_axi_wstrb [3:0] $end
$var reg 1 3 m_axi_wvalid $end
$var reg 32 z mem_rdata [31:0] $end
$var reg 1 & mem_ready $end
$var reg 2 { state [1:0] $end
$var reg 1 | w_handshake_done $end
$upscope $end
$scope module cpu $end
$var wire 1 T clk $end
$var wire 32 } dbg_mem_addr [31:0] $end
$var wire 1 ~ dbg_mem_instr $end
$var wire 32 !" dbg_mem_rdata [31:0] $end
$var wire 1 "" dbg_mem_ready $end
$var wire 1 #" dbg_mem_valid $end
$var wire 32 $" dbg_mem_wdata [31:0] $end
$var wire 4 %" dbg_mem_wstrb [3:0] $end
$var wire 1 &" instr_trap $end
$var wire 32 '" irq [31:0] $end
$var wire 1 (" launch_next_insn $end
$var wire 1 )" mem_done $end
$var wire 1 *" mem_la_firstword $end
$var wire 1 +" mem_la_firstword_xfer $end
$var wire 1 ," mem_la_read $end
$var wire 1 -" mem_la_use_prefetched_high_word $end
$var wire 1 ." mem_la_write $end
$var wire 32 /" mem_rdata [31:0] $end
$var wire 32 0" mem_rdata_latched [31:0] $end
$var wire 1 & mem_ready $end
$var wire 1 1" mem_xfer $end
$var wire 32 2" pcpi_div_rd [31:0] $end
$var wire 1 3" pcpi_div_ready $end
$var wire 1 4" pcpi_div_wait $end
$var wire 1 5" pcpi_div_wr $end
$var wire 32 6" pcpi_mul_rd [31:0] $end
$var wire 1 7" pcpi_mul_ready $end
$var wire 1 8" pcpi_mul_wait $end
$var wire 1 9" pcpi_mul_wr $end
$var wire 32 :" pcpi_rd [31:0] $end
$var wire 1 ;" pcpi_ready $end
$var wire 32 <" pcpi_rs1 [31:0] $end
$var wire 32 =" pcpi_rs2 [31:0] $end
$var wire 1 >" pcpi_wait $end
$var wire 1 ?" pcpi_wr $end
$var wire 1 V resetn $end
$var wire 32 @" next_pc [31:0] $end
$var wire 32 A" mem_rdata_latched_noshuffle [31:0] $end
$var wire 32 B" mem_la_addr [31:0] $end
$var wire 1 C" mem_busy $end
$var wire 1 D" is_rdcycle_rdcycleh_rdinstr_rdinstrh $end
$var parameter 1 E" BARREL_SHIFTER $end
$var parameter 1 F" CATCH_ILLINSN $end
$var parameter 1 G" CATCH_MISALIGN $end
$var parameter 1 H" COMPRESSED_ISA $end
$var parameter 1 I" ENABLE_COUNTERS $end
$var parameter 1 J" ENABLE_COUNTERS64 $end
$var parameter 1 K" ENABLE_DIV $end
$var parameter 1 L" ENABLE_FAST_MUL $end
$var parameter 1 M" ENABLE_IRQ $end
$var parameter 1 N" ENABLE_IRQ_QREGS $end
$var parameter 1 O" ENABLE_IRQ_TIMER $end
$var parameter 1 P" ENABLE_MUL $end
$var parameter 1 Q" ENABLE_PCPI $end
$var parameter 1 R" ENABLE_REGS_16_31 $end
$var parameter 1 S" ENABLE_REGS_DUALPORT $end
$var parameter 1 T" ENABLE_TRACE $end
$var parameter 32 U" LATCHED_IRQ $end
$var parameter 1 V" LATCHED_MEM_RDATA $end
$var parameter 32 W" MASKED_IRQ $end
$var parameter 32 X" PROGADDR_IRQ $end
$var parameter 32 Y" PROGADDR_RESET $end
$var parameter 1 Z" REGS_INIT_ZERO $end
$var parameter 32 [" STACKADDR $end
$var parameter 36 \" TRACE_ADDR $end
$var parameter 36 ]" TRACE_BRANCH $end
$var parameter 36 ^" TRACE_IRQ $end
$var parameter 1 _" TWO_CYCLE_ALU $end
$var parameter 1 `" TWO_CYCLE_COMPARE $end
$var parameter 1 a" TWO_STAGE_SHIFT $end
$var parameter 1 b" WITH_PCPI $end
$var parameter 8 c" cpu_state_exec $end
$var parameter 8 d" cpu_state_fetch $end
$var parameter 8 e" cpu_state_ld_rs1 $end
$var parameter 8 f" cpu_state_ld_rs2 $end
$var parameter 8 g" cpu_state_ldmem $end
$var parameter 8 h" cpu_state_shift $end
$var parameter 8 i" cpu_state_stmem $end
$var parameter 8 j" cpu_state_trap $end
$var parameter 32 k" irq_buserror $end
$var parameter 32 l" irq_ebreak $end
$var parameter 32 m" irq_timer $end
$var parameter 32 n" irqregs_offset $end
$var parameter 32 o" regfile_size $end
$var parameter 32 p" regindex_bits $end
$var reg 32 q" alu_add_sub [31:0] $end
$var reg 1 r" alu_eq $end
$var reg 1 s" alu_lts $end
$var reg 1 t" alu_ltu $end
$var reg 32 u" alu_out [31:0] $end
$var reg 1 v" alu_out_0 $end
$var reg 1 w" alu_out_0_q $end
$var reg 32 x" alu_out_q [31:0] $end
$var reg 32 y" alu_shl [31:0] $end
$var reg 32 z" alu_shr [31:0] $end
$var reg 1 {" alu_wait $end
$var reg 1 |" alu_wait_2 $end
$var reg 64 }" cached_ascii_instr [63:0] $end
$var reg 32 ~" cached_insn_imm [31:0] $end
$var reg 32 !# cached_insn_opcode [31:0] $end
$var reg 5 "# cached_insn_rd [4:0] $end
$var reg 5 ## cached_insn_rs1 [4:0] $end
$var reg 5 $# cached_insn_rs2 [4:0] $end
$var reg 1 %# clear_prefetched_high_word $end
$var reg 1 &# clear_prefetched_high_word_q $end
$var reg 1 '# compressed_instr $end
$var reg 64 (# count_cycle [63:0] $end
$var reg 64 )# count_instr [63:0] $end
$var reg 8 *# cpu_state [7:0] $end
$var reg 32 +# cpuregs_rs1 [31:0] $end
$var reg 32 ,# cpuregs_rs2 [31:0] $end
$var reg 32 -# cpuregs_wrdata [31:0] $end
$var reg 1 .# cpuregs_write $end
$var reg 32 /# current_pc [31:0] $end
$var reg 64 0# dbg_ascii_instr [63:0] $end
$var reg 128 1# dbg_ascii_state [127:0] $end
$var reg 32 2# dbg_insn_addr [31:0] $end
$var reg 32 3# dbg_insn_imm [31:0] $end
$var reg 32 4# dbg_insn_opcode [31:0] $end
$var reg 5 5# dbg_insn_rd [4:0] $end
$var reg 5 6# dbg_insn_rs1 [4:0] $end
$var reg 5 7# dbg_insn_rs2 [4:0] $end
$var reg 1 8# dbg_next $end
$var reg 32 9# dbg_rs1val [31:0] $end
$var reg 1 :# dbg_rs1val_valid $end
$var reg 32 ;# dbg_rs2val [31:0] $end
$var reg 1 <# dbg_rs2val_valid $end
$var reg 1 =# dbg_valid_insn $end
$var reg 32 ># decoded_imm [31:0] $end
$var reg 32 ?# decoded_imm_j [31:0] $end
$var reg 5 @# decoded_rd [4:0] $end
$var reg 5 A# decoded_rs [4:0] $end
$var reg 5 B# decoded_rs1 [4:0] $end
$var reg 5 C# decoded_rs2 [4:0] $end
$var reg 1 D# decoder_pseudo_trigger $end
$var reg 1 E# decoder_pseudo_trigger_q $end
$var reg 1 F# decoder_trigger $end
$var reg 1 G# decoder_trigger_q $end
$var reg 1 H# do_waitirq $end
$var reg 32 I# eoi [31:0] $end
$var reg 1 J# instr_add $end
$var reg 1 K# instr_addi $end
$var reg 1 L# instr_and $end
$var reg 1 M# instr_andi $end
$var reg 1 N# instr_auipc $end
$var reg 1 O# instr_beq $end
$var reg 1 P# instr_bge $end
$var reg 1 Q# instr_bgeu $end
$var reg 1 R# instr_blt $end
$var reg 1 S# instr_bltu $end
$var reg 1 T# instr_bne $end
$var reg 1 U# instr_ecall_ebreak $end
$var reg 1 V# instr_fence $end
$var reg 1 W# instr_getq $end
$var reg 1 X# instr_jal $end
$var reg 1 Y# instr_jalr $end
$var reg 1 Z# instr_lb $end
$var reg 1 [# instr_lbu $end
$var reg 1 \# instr_lh $end
$var reg 1 ]# instr_lhu $end
$var reg 1 ^# instr_lui $end
$var reg 1 _# instr_lw $end
$var reg 1 `# instr_maskirq $end
$var reg 1 a# instr_or $end
$var reg 1 b# instr_ori $end
$var reg 1 c# instr_rdcycle $end
$var reg 1 d# instr_rdcycleh $end
$var reg 1 e# instr_rdinstr $end
$var reg 1 f# instr_rdinstrh $end
$var reg 1 g# instr_retirq $end
$var reg 1 h# instr_sb $end
$var reg 1 i# instr_setq $end
$var reg 1 j# instr_sh $end
$var reg 1 k# instr_sll $end
$var reg 1 l# instr_slli $end
$var reg 1 m# instr_slt $end
$var reg 1 n# instr_slti $end
$var reg 1 o# instr_sltiu $end
$var reg 1 p# instr_sltu $end
$var reg 1 q# instr_sra $end
$var reg 1 r# instr_srai $end
$var reg 1 s# instr_srl $end
$var reg 1 t# instr_srli $end
$var reg 1 u# instr_sub $end
$var reg 1 v# instr_sw $end
$var reg 1 w# instr_timer $end
$var reg 1 x# instr_waitirq $end
$var reg 1 y# instr_xor $end
$var reg 1 z# instr_xori $end
$var reg 1 {# irq_active $end
$var reg 1 |# irq_delay $end
$var reg 32 }# irq_mask [31:0] $end
$var reg 32 ~# irq_pending [31:0] $end
$var reg 2 !$ irq_state [1:0] $end
$var reg 1 "$ is_alu_reg_imm $end
$var reg 1 #$ is_alu_reg_reg $end
$var reg 1 $$ is_beq_bne_blt_bge_bltu_bgeu $end
$var reg 1 %$ is_compare $end
$var reg 1 &$ is_jalr $end
$var reg 1 '$ is_jalr_addi_slti_sltiu_xori_ori_andi $end
$var reg 1 ($ is_lb_lh_lw_lbu_lhu $end
$var reg 1 )$ is_lbu_lhu_lw $end
$var reg 1 *$ is_lui_auipc_jal $end
$var reg 1 +$ is_lui_auipc_jal_jalr_addi_add_sub $end
$var reg 1 ,$ is_sb_sh_sw $end
$var reg 1 -$ is_sll_srl_sra $end
$var reg 1 .$ is_slli_srli_srai $end
$var reg 1 /$ is_slti_blt_slt $end
$var reg 1 0$ is_sltiu_bltu_sltu $end
$var reg 1 1$ last_mem_valid $end
$var reg 1 2$ latched_branch $end
$var reg 1 3$ latched_compr $end
$var reg 1 4$ latched_is_lb $end
$var reg 1 5$ latched_is_lh $end
$var reg 1 6$ latched_is_lu $end
$var reg 5 7$ latched_rd [4:0] $end
$var reg 1 8$ latched_stalu $end
$var reg 1 9$ latched_store $end
$var reg 1 :$ latched_trace $end
$var reg 32 ;$ mem_addr [31:0] $end
$var reg 1 <$ mem_do_prefetch $end
$var reg 1 =$ mem_do_rdata $end
$var reg 1 >$ mem_do_rinst $end
$var reg 1 ?$ mem_do_wdata $end
$var reg 1 ( mem_instr $end
$var reg 1 @$ mem_la_firstword_reg $end
$var reg 1 A$ mem_la_secondword $end
$var reg 32 B$ mem_la_wdata [31:0] $end
$var reg 4 C$ mem_la_wstrb [3:0] $end
$var reg 32 D$ mem_rdata_q [31:0] $end
$var reg 32 E$ mem_rdata_word [31:0] $end
$var reg 2 F$ mem_state [1:0] $end
$var reg 1 % mem_valid $end
$var reg 32 G$ mem_wdata [31:0] $end
$var reg 2 H$ mem_wordsize [1:0] $end
$var reg 4 I$ mem_wstrb [3:0] $end
$var reg 64 J$ new_ascii_instr [63:0] $end
$var reg 32 K$ next_insn_opcode [31:0] $end
$var reg 32 L$ next_irq_pending [31:0] $end
$var reg 32 M$ pcpi_insn [31:0] $end
$var reg 32 N$ pcpi_int_rd [31:0] $end
$var reg 1 O$ pcpi_int_ready $end
$var reg 1 P$ pcpi_int_wait $end
$var reg 1 Q$ pcpi_int_wr $end
$var reg 1 R$ pcpi_timeout $end
$var reg 1 S$ pcpi_valid $end
$var reg 1 T$ prefetched_high_word $end
$var reg 64 U$ q_ascii_instr [63:0] $end
$var reg 32 V$ q_insn_imm [31:0] $end
$var reg 32 W$ q_insn_opcode [31:0] $end
$var reg 5 X$ q_insn_rd [4:0] $end
$var reg 5 Y$ q_insn_rs1 [4:0] $end
$var reg 5 Z$ q_insn_rs2 [4:0] $end
$var reg 32 [$ reg_next_pc [31:0] $end
$var reg 32 \$ reg_op1 [31:0] $end
$var reg 32 ]$ reg_op2 [31:0] $end
$var reg 32 ^$ reg_out [31:0] $end
$var reg 32 _$ reg_pc [31:0] $end
$var reg 5 `$ reg_sh [4:0] $end
$var reg 1 a$ set_mem_do_rdata $end
$var reg 1 b$ set_mem_do_rinst $end
$var reg 1 c$ set_mem_do_wdata $end
$var reg 32 d$ timer [31:0] $end
$var reg 36 e$ trace_data [35:0] $end
$var reg 1 f$ trace_valid $end
$var reg 1 " trap $end
$var integer 32 g$ i [31:0] $end
$scope begin genblk1 $end
$upscope $end
$scope begin genblk2 $end
$upscope $end
$scope begin genblk3 $end
$upscope $end
$scope task empty_statement $end
$upscope $end
$upscope $end
$scope module dram_ctrl $end
$var wire 32 h$ M2_AXI4_ARADDR [31:0] $end
$var wire 2 i$ M2_AXI4_ARBURST [1:0] $end
$var wire 4 j$ M2_AXI4_ARID [3:0] $end
$var wire 8 k$ M2_AXI4_ARLEN [7:0] $end
$var wire 3 l$ M2_AXI4_ARSIZE [2:0] $end
$var wire 1 I M2_AXI4_ARVALID $end
$var wire 32 m$ M2_AXI4_AWADDR [31:0] $end
$var wire 2 n$ M2_AXI4_AWBURST [1:0] $end
$var wire 4 o$ M2_AXI4_AWID [3:0] $end
$var wire 8 p$ M2_AXI4_AWLEN [7:0] $end
$var wire 3 q$ M2_AXI4_AWSIZE [2:0] $end
$var wire 1 B M2_AXI4_AWVALID $end
$var wire 1 @ M2_AXI4_BREADY $end
$var wire 1 : M2_AXI4_RREADY $end
$var wire 32 r$ M2_AXI4_WDATA [31:0] $end
$var wire 1 6 M2_AXI4_WLAST $end
$var wire 4 s$ M2_AXI4_WSTRB [3:0] $end
$var wire 1 3 M2_AXI4_WVALID $end
$var wire 1 T clk $end
$var wire 32 t$ dram_dq [31:0] $end
$var wire 1 V rst_n $end
$var wire 1 K M2_AXI4_ARREADY $end
$var parameter 3 u$ ADDR_PHASE $end
$var parameter 32 v$ ADDR_WIDTH $end
$var parameter 32 w$ AXI4_ID_WIDTH $end
$var parameter 3 x$ DATA_PHASE $end
$var parameter 32 y$ DATA_WIDTH $end
$var parameter 3 z$ IDLE $end
$var parameter 3 {$ RESP_PHASE $end
$var parameter 3 |$ WAIT $end
$var reg 1 D M2_AXI4_AWREADY $end
$var reg 4 }$ M2_AXI4_BID [3:0] $end
$var reg 2 ~$ M2_AXI4_BRESP [1:0] $end
$var reg 1 > M2_AXI4_BVALID $end
$var reg 32 !% M2_AXI4_RDATA [31:0] $end
$var reg 4 "% M2_AXI4_RID [3:0] $end
$var reg 1 ; M2_AXI4_RLAST $end
$var reg 2 #% M2_AXI4_RRESP [1:0] $end
$var reg 1 8 M2_AXI4_RVALID $end
$var reg 1 5 M2_AXI4_WREADY $end
$var reg 14 $% dram_addr [13:0] $end
$var reg 3 %% dram_ba [2:0] $end
$var reg 1 0 dram_cas $end
$var reg 1 / dram_ck $end
$var reg 1 . dram_cs $end
$var reg 1 &% dram_data_oe $end
$var reg 32 '% dram_data_out [31:0] $end
$var reg 4 (% dram_dm [3:0] $end
$var reg 1 , dram_dqs $end
$var reg 1 + dram_ras $end
$var reg 1 * dram_we $end
$var reg 1 )% executed_status $end
$var reg 32 *% read_addr [31:0] $end
$var reg 8 +% read_count [7:0] $end
$var reg 32 ,% read_data_reg [31:0] $end
$var reg 1 -% read_data_valid $end
$var reg 4 .% read_id [3:0] $end
$var reg 8 /% read_len [7:0] $end
$var reg 3 0% read_state [2:0] $end
$var reg 32 1% write_addr [31:0] $end
$var reg 8 2% write_count [7:0] $end
$var reg 4 3% write_id [3:0] $end
$var reg 8 4% write_len [7:0] $end
$var reg 3 5% write_state [2:0] $end
$upscope $end
$scope module lpddr4 $end
$var wire 14 6% addr [13:0] $end
$var wire 3 7% ba [2:0] $end
$var wire 1 0 cas $end
$var wire 1 / clk $end
$var wire 1 . cs $end
$var wire 4 8% dm [3:0] $end
$var wire 32 9% dq [31:0] $end
$var wire 1 , dqs $end
$var wire 14 :% mem_addr [13:0] $end
$var wire 1 + ras $end
$var wire 1 * we $end
$var reg 32 ;% data_out [31:0] $end
$var reg 32 <% debug_reg_read [31:0] $end
$var reg 32 =% debug_reg_write [31:0] $end
$var reg 1 >% debug_status $end
$var reg 1 ?% output_enable $end
$var reg 32 @% write_data [31:0] $end
$scope begin $ivl_for_loop0 $end
$var integer 32 A% i [31:0] $end
$upscope $end
$upscope $end
$scope task verify_test_results $end
$var reg 32 B% read_data [31:0] $end
$var integer 32 C% errors [31:0] $end
$upscope $end
$upscope $end
$enddefinitions $end
$comment Show the parameter values. $end
$dumpall
b11 |$
b100 {$
b0 z$
b100000 y$
b10 x$
b100 w$
b100000 v$
b1 u$
b101 p"
b100000 o"
b100000 n"
b0 m"
b1 l"
b10 k"
b10000000 j"
b10 i"
b100 h"
b1 g"
b10000 f"
b100000 e"
b1000000 d"
b1000 c"
0b"
0a"
0`"
0_"
b100000000000000000000000000000000000 ^"
b100000000000000000000000000000000 ]"
b1000000000000000000000000000000000 \"
b11111111111111111111111111111100 ["
1Z"
b0 Y"
b10000 X"
b0 W"
0V"
b11111111111111111111111111111111 U"
0T"
1S"
1R"
0Q"
0P"
1O"
1N"
0M"
0L"
0K"
0J"
0I"
0H"
1G"
1F"
1E"
b10 k
b11 j
b10 i
b1 h
b1 g
b100 f
b0 e
b100000 d
b100000 c
b100000 S
b1010 R
b100 Q
b100000 P
$end
#0
$dumpvars
bx C%
bx B%
b10000000000000000 A%
b0 @%
0?%
0>%
b0 =%
b0 <%
b0 ;%
b0 :%
bz 9%
bx 8%
b0 7%
b0 6%
b0 5%
bx 4%
bx 3%
b0 2%
bx 1%
b0 0%
bx /%
bx .%
0-%
bx ,%
b0 +%
bx *%
0)%
bx (%
bx '%
0&%
b0 %%
b0 $%
b0 #%
bx "%
bx !%
b0 ~$
bx }$
bz t$
b0 s$
b0 r$
b0 q$
b0 p$
b0 o$
b0 n$
b0 m$
b0 l$
b0 k$
b0 j$
b0 i$
b0 h$
b100000 g$
xf$
bx e$
bx d$
xc$
xb$
xa$
bx `$
bx _$
bx ^$
bx ]$
bx \$
bx [$
bx Z$
bx Y$
bx X$
bx W$
bx V$
bx U$
xT$
xS$
xR$
0Q$
0P$
0O$
bx N$
bx M$
bx L$
bx K$
bx J$
bx I$
bx H$
bx G$
bx F$
bx E$
bx D$
bx C$
bx B$
xA$
x@$
x?$
x>$
x=$
x<$
bx ;$
x:$
x9$
x8$
bx 7$
x6$
x5$
x4$
x3$
x2$
x1$
x0$
x/$
x.$
x-$
x,$
x+$
x*$
x)$
x($
x'$
x&$
x%$
x$$
x#$
x"$
bx !$
bx ~#
bx }#
x|#
x{#
xz#
xy#
xx#
xw#
xv#
xu#
xt#
xs#
xr#
xq#
xp#
xo#
xn#
xm#
xl#
xk#
xj#
xi#
xh#
xg#
xf#
xe#
xd#
xc#
xb#
xa#
x`#
x_#
x^#
x]#
x\#
x[#
xZ#
xY#
xX#
xW#
xV#
xU#
xT#
xS#
xR#
xQ#
xP#
xO#
xN#
xM#
xL#
xK#
xJ#
bx I#
xH#
xG#
xF#
xE#
xD#
bx C#
bx B#
bx A#
bx @#
bx ?#
bx >#
x=#
x<#
bx ;#
x:#
bx 9#
x8#
bx 7#
bx 6#
bx 5#
bx 4#
bx 3#
bx 2#
bx 1#
bx 0#
bx /#
x.#
bx -#
bx ,#
bx +#
bx *#
bx )#
bx (#
x'#
x&#
0%#
bx $#
bx ##
bx "#
bx !#
bx ~"
bx }"
x|"
x{"
bx z"
bx y"
bx x"
xw"
xv"
bx u"
xt"
xs"
xr"
bx q"
xD"
xC"
bx00 B"
bx A"
bx @"
z?"
z>"
bx ="
bx <"
z;"
bz :"
09"
08"
07"
bx 6"
05"
04"
03"
bx 2"
01"
bx 0"
b0 /"
0."
0-"
0,"
0+"
0*"
0)"
x("
bz '"
x&"
bx %"
bx $"
x#"
0""
b0 !"
x~
bx }
0|
b0 {
b0 z
b0 y
b0 x
b0 w
b0 v
b0 u
b0 t
b0 s
b0 r
b0 q
b0 p
b0 o
b0 n
b0 m
0l
bx b
b0 a
bx `
bx _
b0 ^
bx ]
bx \
bx [
xZ
xY
bx X
xW
0V
bx U
0T
b0 O
b0 N
b0 M
b0 L
1K
b0 J
0I
b0 H
b0 G
b0 F
b0 E
0D
b0 C
0B
bx A
0@
b0 ?
0>
bx =
bx <
0;
0:
b0 9
08
b0 7
06
05
b0 4
03
b0 2
b0 1
10
0/
1.
bx -
x,
1+
1*
bx )
x(
b0 '
0&
x%
bx $
bx #
x"
bz !
$end
#5000
0("
0Y
0Z
b0 J$
0C"
b110011001100101011101000110001101101000 1#
b0 @"
b11111111111111111111111111111100 -#
1.#
01$
0@$
0T$
0A$
0#"
0%
b0 F$
0=#
0V#
0L#
0a#
0q#
0s#
0y#
0p#
0m#
0k#
0u#
0J#
0M#
0b#
0z#
0o#
0n#
0K#
0Q#
0S#
0P#
0R#
0T#
0O#
0%$
0$$
0&#
b0 ~#
0?$
0=$
0>$
0<$
b1000000 *#
b11111111111111111111111111111100 ^$
b10 7$
b0 d$
b0 I#
b0 !$
b11111111111111111111111111111111 }#
0|#
0{#
0R$
0S$
04$
05$
06$
0:$
02$
08$
19$
b0 [$
b0 _$
0f$
0H#
0D#
0F#
0|"
0{"
0"
0W
b0 U
b0 X
b0 L$
0c$
0a$
0b$
1T
#10000
0T
#15000
b11111111111111111111111111111100 -#
1.#
19$
0E#
0G#
b11111111111111111111111111111100 ^$
00$
0/$
08#
b0 L$
1T
#20000
0T
#25000
b11111111111111111111111111111100 -#
1.#
19$
b11111111111111111111111111111100 ^$
b0 L$
1T
#30000
0T
#35000
b11111111111111111111111111111100 -#
1.#
19$
b11111111111111111111111111111100 ^$
b0 L$
1T
#40000
0T
#45000
b11111111111111111111111111111100 -#
1.#
19$
b11111111111111111111111111111100 ^$
b0 L$
1T
#50000
0T
1V
#55000
1,"
b0 B"
b0 E$
b1111 C$
1C"
bx -#
0.#
0.
1D
1/
b1 X
bx ~#
bx 7$
09$
b0 H$
1>$
bx ^$
bx /#
bx L$
1T
#60000
0T
#65000
0,"
1Y
0/
b1 F$
1~
1(
1#"
1%
b0 %"
b0 #
b0 [
b0 I$
b0 }
b0 )
b0 ]
b0 ;$
b10 X
bx /#
1T
#70000
0T
#75000
b1 {
1:
1I
b1 N
b1 o
b1 i$
b10 J
b10 r
b10 l$
b1 M
b1 p
b1 j$
1/
b11 X
11$
bx /#
1T
#80000
0T
#85000
0/
0K
b1 0%
b0 /%
b0 *%
b1 .%
0I
b100 X
bx /#
1T
#90000
0T
#95000
b10011000000010000010100000000 !
b10011000000010000010100000000 t$
b10011000000010000010100000000 9%
b10011000000010000010100000000 <%
1?%
b10011000000010000010100000000 ;%
1>%
b10 0%
00
0+
1/
b101 X
bx /#
1T
#100000
0T
#105000
0/
1.
1-%
b10011000000010000010100000000 ,%
b110 X
bx /#
1T
#110000
0T
#115000
0.
1;
18
b10011000000010000010100000000 =
b10011000000010000010100000000 `
b10011000000010000010100000000 !%
b1 <
b1 _
b1 "%
1/
b111 X
bx /#
1T
#120000
0T
#125000
1)"
b10011000000010000010100000000 0"
b10011000000010000010100000000 A"
11"
b10011000000010000010100000000 E$
0/
0;
08
1K
b0 0%
0-%
b100 *%
b1 +%
b0 {
0:
1""
1&
b10011000000010000010100000000 !"
b10011000000010000010100000000 '
b10011000000010000010100000000 z
b10011000000010000010100000000 /"
b1000 X
bx /#
1T
#130000
0T
#135000
0)"
01"
bx00 B"
1("
0Y
0C"
b0 ,#
b11111111111111111111111111111100 +#
b1 {
1:
1I
0""
0&
1/
b0 F$
0#"
0%
b1 U
b1001 X
0>$
1F#
0'#
b10000 C#
b10 B#
b1010 @#
b10000000100110000 ?#
0#$
0"$
0,$
0($
0x#
0g#
0Y#
0X#
0N#
0^#
b10011000000010000010100000000 K$
b10011000000010000010100000000 D$
01$
bx /#
1T
#140000
0T
#145000
1,"
1&"
b100 B"
0("
b1010 5#
b10000 7#
b10 6#
b0x 3#
b10100000000 4#
b0 0#
0D"
b11011000110010001011111011100100111001100110001 1#
1C"
b100 @"
0/
0K
b1 0%
b0 +%
b0 *%
0I
b0 2#
1=#
18#
b0x >#
0-$
0'$
0.$
0w#
0`#
0i#
0W#
0U#
0f#
0e#
0d#
0c#
0r#
0t#
0l#
0v#
0j#
0h#
0]#
0[#
0_#
0\#
0Z#
0&$
0+$
0*$
b100000 *#
1<$
b100 [$
03$
b1010 7$
1G#
0F#
0<#
0:#
b1010 X
bx /#
1T
#150000
0T
#155000
0,"
1Y
b1110100011100100110000101110000 1#
b10 0%
1/
b1 F$
1#"
1%
b100 }
b100 )
b100 ]
b100 ;$
b1011 X
b10000000 *#
0G#
0)$
b1010 "#
b10000 $#
b10 ##
b10100000000 !#
b0x ~"
b0 }"
08#
b1010 X$
b10000 Z$
b10 Y$
b10100000000 W$
b0x V$
b0 U$
1T
#160000
0T
#165000
0/
1.
1-%
11$
1"
b1100 X
1T
#170000
0T
#175000
0.
1;
18
1/
b1101 X
1"
0=#
1T
#180000
0T
#185000
11"
0/
0;
08
1K
b0 0%
0-%
b100 *%
b1 +%
b0 {
0:
1""
1&
1"
b1110 X
1T
#190000
0T
#195000
01"
0Y
b1 {
1:
1I
b100 O
b100 n
b100 h$
0""
0&
1/
b10 U
b1111 X
1"
01$
0#"
0%
1T
#200000
0T
#205000
0/
0K
b1 0%
b0 +%
0I
1"
b10000 X
1T
#210000
0T
#215000
b10010011000000010000101000000000 !
b10010011000000010000101000000000 t$
b10010011000000010000101000000000 9%
b10010011000000010000101000000000 <%
b10010011000000010000101000000000 ;%
b10 0%
b1 :%
b1 2
b1 $%
b1 6%
1/
b10001 X
1"
1T
#220000
0T
#225000
0/
1.
1-%
b10010011000000010000101000000000 ,%
1"
b10010 X
1T
#230000
0T
#235000
0.
1;
18
b10010011000000010000101000000000 =
b10010011000000010000101000000000 `
b10010011000000010000101000000000 !%
1/
b10011 X
1"
1T
